EESchema Schematic File Version 2
LIBS:power
LIBS:device
LIBS:transistors
LIBS:conn
LIBS:linear
LIBS:regul
LIBS:74xx
LIBS:cmos4000
LIBS:adc-dac
LIBS:memory
LIBS:xilinx
LIBS:microcontrollers
LIBS:dsp
LIBS:microchip
LIBS:analog_switches
LIBS:motorola
LIBS:texas
LIBS:intel
LIBS:audio
LIBS:interface
LIBS:digital-audio
LIBS:philips
LIBS:display
LIBS:cypress
LIBS:siliconi
LIBS:opto
LIBS:atmel
LIBS:contrib
LIBS:valves
LIBS:switches
LIBS:74xgxx
LIBS:ac-dc
LIBS:actel
LIBS:allegro
LIBS:Altera
LIBS:analog_devices
LIBS:battery_management
LIBS:bbd
LIBS:bosch
LIBS:brooktre
LIBS:cmos_ieee
LIBS:dc-dc
LIBS:diode
LIBS:elec-unifil
LIBS:ESD_Protection
LIBS:ftdi
LIBS:gennum
LIBS:hc11
LIBS:infineon
LIBS:intersil
LIBS:ir
LIBS:Lattice
LIBS:leds
LIBS:LEM
LIBS:maxim
LIBS:mechanical
LIBS:microchip_dspic33dsc
LIBS:microchip_pic10mcu
LIBS:microchip_pic12mcu
LIBS:microchip_pic16mcu
LIBS:microchip_pic18mcu
LIBS:microchip_pic24mcu
LIBS:microchip_pic32mcu
LIBS:modules
LIBS:motor_drivers
LIBS:motors
LIBS:msp430
LIBS:nordicsemi
LIBS:nxp
LIBS:nxp_armmcu
LIBS:onsemi
LIBS:Oscillators
LIBS:powerint
LIBS:Power_Management
LIBS:pspice
LIBS:references
LIBS:relays
LIBS:rfcom
LIBS:RFSolutions
LIBS:sensors
LIBS:silabs
LIBS:stm8
LIBS:stm32
LIBS:supertex
LIBS:transf
LIBS:triac_thyristor
LIBS:ttl_ieee
LIBS:video
LIBS:wiznet
LIBS:Worldsemi
LIBS:Xicor
LIBS:zetex
LIBS:Zilog
LIBS:extra
LIBS:graphic_symbols
LIBS:bicycle-companion-mini-cache
EELAYER 25 0
EELAYER END
$Descr A3 16535 11693
encoding utf-8
Sheet 1 1
Title ""
Date ""
Rev ""
Comp ""
Comment1 ""
Comment2 ""
Comment3 ""
Comment4 ""
$EndDescr
$Comp
L SW_Push SW1
U 1 1 593332C7
P 2100 1200
F 0 "SW1" H 2150 1300 50  0000 L CNN
F 1 "BUT_TL" H 2100 1140 50  0000 C CNN
F 2 "Buttons_Switches_THT:SW_Tactile_SPST_Angled" H 2100 1400 50  0001 C CNN
F 3 "" H 2100 1400 50  0001 C CNN
	1    2100 1200
	1    0    0    -1  
$EndComp
$Comp
L SW_Push SW2
U 1 1 59333354
P 2100 1550
F 0 "SW2" H 2150 1650 50  0000 L CNN
F 1 "BUT_TR" H 2100 1490 50  0000 C CNN
F 2 "Buttons_Switches_THT:SW_Tactile_SPST_Angled" H 2100 1750 50  0001 C CNN
F 3 "" H 2100 1750 50  0001 C CNN
	1    2100 1550
	1    0    0    -1  
$EndComp
$Comp
L SW_Push SW3
U 1 1 59333376
P 2100 1950
F 0 "SW3" H 2150 2050 50  0000 L CNN
F 1 "BUT_BL" H 2100 1890 50  0000 C CNN
F 2 "Buttons_Switches_THT:SW_Tactile_SPST_Angled" H 2100 2150 50  0001 C CNN
F 3 "" H 2100 2150 50  0001 C CNN
	1    2100 1950
	1    0    0    -1  
$EndComp
$Comp
L SW_Push SW4
U 1 1 5933339B
P 2100 2350
F 0 "SW4" H 2150 2450 50  0000 L CNN
F 1 "BUT_BR" H 2100 2290 50  0000 C CNN
F 2 "Buttons_Switches_THT:SW_Tactile_SPST_Angled" H 2100 2550 50  0001 C CNN
F 3 "" H 2100 2550 50  0001 C CNN
	1    2100 2350
	1    0    0    -1  
$EndComp
Text Label 2400 1200 0    60   ~ 0
BUT_TL
Text Label 2400 1550 0    60   ~ 0
BUT_TR
Text Label 2400 1950 0    60   ~ 0
BUT_BL
Text Label 2400 2350 0    60   ~ 0
BUT_BR
$Comp
L CONN_01X04 J3
U 1 1 593336D4
P 1550 5400
F 0 "J3" H 1550 5650 50  0000 C CNN
F 1 "DISPLAY" V 1650 5400 50  0000 C CNN
F 2 "Socket_Strips:Socket_Strip_Straight_1x04_Pitch2.54mm" H 1550 5400 50  0001 C CNN
F 3 "" H 1550 5400 50  0001 C CNN
	1    1550 5400
	1    0    0    -1  
$EndComp
$Comp
L GND #PWR01
U 1 1 59333749
P 900 5300
F 0 "#PWR01" H 900 5050 50  0001 C CNN
F 1 "GND" H 900 5150 50  0000 C CNN
F 2 "" H 900 5300 50  0001 C CNN
F 3 "" H 900 5300 50  0001 C CNN
	1    900  5300
	-1   0    0    1   
$EndComp
$Comp
L +3.3V #PWR02
U 1 1 593337D7
P 1150 5250
F 0 "#PWR02" H 1150 5100 50  0001 C CNN
F 1 "+3.3V" H 1150 5390 50  0000 C CNN
F 2 "" H 1150 5250 50  0001 C CNN
F 3 "" H 1150 5250 50  0001 C CNN
	1    1150 5250
	1    0    0    -1  
$EndComp
Text Label 1250 5450 2    60   ~ 0
I2C1_SCL
Text Label 1250 5550 2    60   ~ 0
I2C1_SDA
$Comp
L DS18B20 U1
U 1 1 5933384D
P 3500 5300
F 0 "U1" H 3350 5550 50  0000 C CNN
F 1 "DS18B20" H 3500 5050 50  0000 C CNN
F 2 "TO_SOT_Packages_THT:TO-92_Molded_Narrow" H 3350 5550 50  0001 C CNN
F 3 "" H 3350 5550 50  0001 C CNN
	1    3500 5300
	1    0    0    -1  
$EndComp
$Comp
L +3.3V #PWR03
U 1 1 59333932
P 3050 5000
F 0 "#PWR03" H 3050 4850 50  0001 C CNN
F 1 "+3.3V" H 3050 5140 50  0000 C CNN
F 2 "" H 3050 5000 50  0001 C CNN
F 3 "" H 3050 5000 50  0001 C CNN
	1    3050 5000
	1    0    0    -1  
$EndComp
$Comp
L GND #PWR04
U 1 1 59333952
P 3050 5450
F 0 "#PWR04" H 3050 5200 50  0001 C CNN
F 1 "GND" H 3050 5300 50  0000 C CNN
F 2 "" H 3050 5450 50  0001 C CNN
F 3 "" H 3050 5450 50  0001 C CNN
	1    3050 5450
	1    0    0    -1  
$EndComp
$Comp
L GND #PWR05
U 1 1 59333D35
P 1600 10400
F 0 "#PWR05" H 1600 10150 50  0001 C CNN
F 1 "GND" H 1600 10250 50  0000 C CNN
F 2 "" H 1600 10400 50  0001 C CNN
F 3 "" H 1600 10400 50  0001 C CNN
	1    1600 10400
	1    0    0    -1  
$EndComp
$Comp
L +BATT #PWR06
U 1 1 59333D57
P 1850 10400
F 0 "#PWR06" H 1850 10250 50  0001 C CNN
F 1 "+BATT" H 1850 10540 50  0000 C CNN
F 2 "" H 1850 10400 50  0001 C CNN
F 3 "" H 1850 10400 50  0001 C CNN
	1    1850 10400
	-1   0    0    1   
$EndComp
$Comp
L CONN_01X03 J1
U 1 1 59333EDF
P 2900 4000
F 0 "J1" H 2900 4200 50  0000 C CNN
F 1 "HALL" V 3000 4000 50  0000 C CNN
F 2 "Pin_Headers:Pin_Header_Straight_1x03_Pitch2.54mm" H 2900 4000 50  0001 C CNN
F 3 "" H 2900 4000 50  0001 C CNN
	1    2900 4000
	1    0    0    -1  
$EndComp
$Comp
L GND #PWR07
U 1 1 59333FB8
P 2300 3950
F 0 "#PWR07" H 2300 3700 50  0001 C CNN
F 1 "GND" H 2300 3800 50  0000 C CNN
F 2 "" H 2300 3950 50  0001 C CNN
F 3 "" H 2300 3950 50  0001 C CNN
	1    2300 3950
	1    0    0    -1  
$EndComp
$Comp
L +3.3V #PWR08
U 1 1 59333FFE
P 2600 4200
F 0 "#PWR08" H 2600 4050 50  0001 C CNN
F 1 "+3.3V" H 2600 4340 50  0000 C CNN
F 2 "" H 2600 4200 50  0001 C CNN
F 3 "" H 2600 4200 50  0001 C CNN
	1    2600 4200
	-1   0    0    1   
$EndComp
Text Label 2650 4000 2    60   ~ 0
HALL
$Comp
L STM32F103C8Tx U4
U 1 1 593340E7
P 11950 2900
F 0 "U4" H 9150 4625 50  0000 L BNN
F 1 "STM32F103C8Tx" H 14750 4625 50  0000 R BNN
F 2 "Housings_QFP:LQFP-48_7x7mm_Pitch0.5mm" H 14750 4575 50  0001 R TNN
F 3 "" H 11950 2900 50  0001 C CNN
	1    11950 2900
	1    0    0    -1  
$EndComp
$Comp
L AP2112 U3
U 1 1 59334BE8
P 8750 9750
F 0 "U3" H 8750 9500 50  0000 C CNN
F 1 "AP2112" H 8750 10000 50  0000 C CNN
F 2 "TO_SOT_Packages_SMD:SOT-23-5" H 8750 9400 50  0001 C CNN
F 3 "" H 8850 9500 50  0001 C CNN
	1    8750 9750
	1    0    0    -1  
$EndComp
$Comp
L +BATT #PWR09
U 1 1 59334CF3
P 7350 9300
F 0 "#PWR09" H 7350 9150 50  0001 C CNN
F 1 "+BATT" H 7350 9440 50  0000 C CNN
F 2 "" H 7350 9300 50  0001 C CNN
F 3 "" H 7350 9300 50  0001 C CNN
	1    7350 9300
	1    0    0    -1  
$EndComp
$Comp
L +3.3V #PWR010
U 1 1 59334D1B
P 9150 9650
F 0 "#PWR010" H 9150 9500 50  0001 C CNN
F 1 "+3.3V" H 9150 9790 50  0000 C CNN
F 2 "" H 9150 9650 50  0001 C CNN
F 3 "" H 9150 9650 50  0001 C CNN
	1    9150 9650
	1    0    0    -1  
$EndComp
$Comp
L GND #PWR011
U 1 1 59334D43
P 8150 9750
F 0 "#PWR011" H 8150 9500 50  0001 C CNN
F 1 "GND" H 8150 9600 50  0000 C CNN
F 2 "" H 8150 9750 50  0001 C CNN
F 3 "" H 8150 9750 50  0001 C CNN
	1    8150 9750
	1    0    0    -1  
$EndComp
$Comp
L R_Small R9
U 1 1 59334E16
P 8350 10150
F 0 "R9" H 8380 10170 50  0000 L CNN
F 1 "10k" H 8380 10110 50  0000 L CNN
F 2 "Resistors_SMD:R_0805_HandSoldering" H 8350 10150 50  0001 C CNN
F 3 "" H 8350 10150 50  0001 C CNN
	1    8350 10150
	1    0    0    -1  
$EndComp
$Comp
L SW_Push SW5
U 1 1 593352CB
P 14000 6350
F 0 "SW5" H 14050 6450 50  0000 L CNN
F 1 "RESET" H 14000 6290 50  0000 C CNN
F 2 "mods:SW_PUSH_3.5mm" H 14000 6550 50  0001 C CNN
F 3 "" H 14000 6550 50  0001 C CNN
	1    14000 6350
	0    -1   -1   0   
$EndComp
$Comp
L GND #PWR012
U 1 1 593353BD
P 14250 6600
F 0 "#PWR012" H 14250 6350 50  0001 C CNN
F 1 "GND" H 14250 6450 50  0000 C CNN
F 2 "" H 14250 6600 50  0001 C CNN
F 3 "" H 14250 6600 50  0001 C CNN
	1    14250 6600
	1    0    0    -1  
$EndComp
$Comp
L +3.3V #PWR013
U 1 1 593353E9
P 14250 5850
F 0 "#PWR013" H 14250 5700 50  0001 C CNN
F 1 "+3.3V" H 14250 5990 50  0000 C CNN
F 2 "" H 14250 5850 50  0001 C CNN
F 3 "" H 14250 5850 50  0001 C CNN
	1    14250 5850
	1    0    0    -1  
$EndComp
$Comp
L R_Small R12
U 1 1 59335415
P 14250 6000
F 0 "R12" H 14280 6020 50  0000 L CNN
F 1 "10k" H 14280 5960 50  0000 L CNN
F 2 "Resistors_SMD:R_0805_HandSoldering" H 14250 6000 50  0001 C CNN
F 3 "" H 14250 6000 50  0001 C CNN
	1    14250 6000
	1    0    0    -1  
$EndComp
$Comp
L C_Small C9
U 1 1 593354A9
P 14250 6350
F 0 "C9" H 14260 6420 50  0000 L CNN
F 1 "105" H 14260 6270 50  0000 L CNN
F 2 "Capacitors_SMD:C_0805_HandSoldering" H 14250 6350 50  0001 C CNN
F 3 "" H 14250 6350 50  0001 C CNN
	1    14250 6350
	1    0    0    -1  
$EndComp
Text Label 14650 6150 0    60   ~ 0
RESET
$Comp
L Crystal Y1
U 1 1 59335F0E
P 14550 8650
F 0 "Y1" H 14550 8800 50  0000 C CNN
F 1 "8MHz" H 14550 8500 50  0000 C CNN
F 2 "mods:crystal_hc-49s" H 14550 8650 50  0001 C CNN
F 3 "" H 14550 8650 50  0001 C CNN
	1    14550 8650
	0    1    1    0   
$EndComp
$Comp
L C_Small C3
U 1 1 59335F4D
P 14150 8350
F 0 "C3" H 14160 8420 50  0000 L CNN
F 1 "22p" H 14160 8270 50  0000 L CNN
F 2 "Capacitors_SMD:C_0805_HandSoldering" H 14150 8350 50  0001 C CNN
F 3 "" H 14150 8350 50  0001 C CNN
	1    14150 8350
	0    1    1    0   
$EndComp
$Comp
L C_Small C4
U 1 1 59335F8C
P 14150 8950
F 0 "C4" H 14160 9020 50  0000 L CNN
F 1 "22p" H 14160 8870 50  0000 L CNN
F 2 "Capacitors_SMD:C_0805_HandSoldering" H 14150 8950 50  0001 C CNN
F 3 "" H 14150 8950 50  0001 C CNN
	1    14150 8950
	0    1    1    0   
$EndComp
$Comp
L R_Small R8
U 1 1 59335FC9
P 14850 8650
F 0 "R8" H 14880 8670 50  0000 L CNN
F 1 "1M" H 14880 8610 50  0000 L CNN
F 2 "Resistors_SMD:R_0805_HandSoldering" H 14850 8650 50  0001 C CNN
F 3 "" H 14850 8650 50  0001 C CNN
	1    14850 8650
	1    0    0    -1  
$EndComp
Text Label 14950 8350 0    60   ~ 0
OSCIN
Text Label 14950 8950 0    60   ~ 0
OSCOUT
$Comp
L Crystal Y2
U 1 1 59336F0C
P 14500 7650
F 0 "Y2" H 14500 7800 50  0000 C CNN
F 1 "32.768KHz" H 14500 7500 50  0000 C CNN
F 2 "Crystals:Crystal_C38-LF_d3.0mm_l8.0mm_Horizontal" H 14500 7650 50  0001 C CNN
F 3 "" H 14500 7650 50  0001 C CNN
	1    14500 7650
	0    1    1    0   
$EndComp
$Comp
L C_Small C7
U 1 1 59336F12
P 14100 7350
F 0 "C7" H 14110 7420 50  0000 L CNN
F 1 "22p" H 14110 7270 50  0000 L CNN
F 2 "Capacitors_SMD:C_0805_HandSoldering" H 14100 7350 50  0001 C CNN
F 3 "" H 14100 7350 50  0001 C CNN
	1    14100 7350
	0    1    1    0   
$EndComp
$Comp
L C_Small C8
U 1 1 59336F18
P 14100 7950
F 0 "C8" H 14110 8020 50  0000 L CNN
F 1 "22p" H 14110 7870 50  0000 L CNN
F 2 "Capacitors_SMD:C_0805_HandSoldering" H 14100 7950 50  0001 C CNN
F 3 "" H 14100 7950 50  0001 C CNN
	1    14100 7950
	0    1    1    0   
$EndComp
Text Label 14950 7350 0    60   ~ 0
PC14
Text Label 14950 7950 0    60   ~ 0
PC15
$Comp
L GND #PWR014
U 1 1 59336F49
P 13600 7350
F 0 "#PWR014" H 13600 7100 50  0001 C CNN
F 1 "GND" H 13600 7200 50  0000 C CNN
F 2 "" H 13600 7350 50  0001 C CNN
F 3 "" H 13600 7350 50  0001 C CNN
	1    13600 7350
	0    1    1    0   
$EndComp
$Comp
L USB_OTG J6
U 1 1 5933914A
P 2000 9100
F 0 "J6" H 1800 9550 50  0000 L CNN
F 1 "USB_OTG" H 1800 9450 50  0000 L CNN
F 2 "Connectors_USB:USB_Micro-B_Molex_47346-0001" H 2150 9050 50  0001 C CNN
F 3 "" H 2150 9050 50  0001 C CNN
	1    2000 9100
	1    0    0    -1  
$EndComp
$Comp
L +5V #PWR015
U 1 1 5933A881
P 2450 8850
F 0 "#PWR015" H 2450 8700 50  0001 C CNN
F 1 "+5V" H 2450 8990 50  0000 C CNN
F 2 "" H 2450 8850 50  0001 C CNN
F 3 "" H 2450 8850 50  0001 C CNN
	1    2450 8850
	1    0    0    -1  
$EndComp
$Comp
L GND #PWR016
U 1 1 5933A91C
P 2000 9650
F 0 "#PWR016" H 2000 9400 50  0001 C CNN
F 1 "GND" H 2000 9500 50  0000 C CNN
F 2 "" H 2000 9650 50  0001 C CNN
F 3 "" H 2000 9650 50  0001 C CNN
	1    2000 9650
	1    0    0    -1  
$EndComp
$Comp
L MCP73834 U5
U 1 1 5933BCF1
P 2400 7150
F 0 "U5" H 2400 6800 50  0000 L CNN
F 1 "MCP73834" H 2250 7500 50  0000 L CNN
F 2 "Housings_SSOP:MSOP-10_3x3mm_Pitch0.5mm" H 1600 6700 50  0001 L CIN
F 3 "" V 2450 7000 50  0001 C CNN
	1    2400 7150
	1    0    0    -1  
$EndComp
$Comp
L +5V #PWR017
U 1 1 5933C631
P 1900 6850
F 0 "#PWR017" H 1900 6700 50  0001 C CNN
F 1 "+5V" H 1900 6990 50  0000 C CNN
F 2 "" H 1900 6850 50  0001 C CNN
F 3 "" H 1900 6850 50  0001 C CNN
	1    1900 6850
	1    0    0    -1  
$EndComp
$Comp
L GND #PWR018
U 1 1 5933C734
P 1900 7450
F 0 "#PWR018" H 1900 7200 50  0001 C CNN
F 1 "GND" H 1900 7300 50  0000 C CNN
F 2 "" H 1900 7450 50  0001 C CNN
F 3 "" H 1900 7450 50  0001 C CNN
	1    1900 7450
	1    0    0    -1  
$EndComp
$Comp
L +BATT #PWR019
U 1 1 5933C825
P 2950 6850
F 0 "#PWR019" H 2950 6700 50  0001 C CNN
F 1 "+BATT" H 2950 6990 50  0000 C CNN
F 2 "" H 2950 6850 50  0001 C CNN
F 3 "" H 2950 6850 50  0001 C CNN
	1    2950 6850
	1    0    0    -1  
$EndComp
$Comp
L 24LC256 U2
U 1 1 5933DA01
P 6250 1600
F 0 "U2" H 6000 1850 50  0000 C CNN
F 1 "24LC256" H 6300 1850 50  0000 L CNN
F 2 "Housings_SOIC:SOIC-8_3.9x4.9mm_Pitch1.27mm" H 6300 1350 50  0001 L CNN
F 3 "" H 6250 1500 50  0001 C CNN
	1    6250 1600
	1    0    0    -1  
$EndComp
$Comp
L C_Small C11
U 1 1 5934250D
P 3450 7100
F 0 "C11" H 3460 7170 50  0000 L CNN
F 1 "1uF" H 3460 7020 50  0000 L CNN
F 2 "Capacitors_SMD:C_0805_HandSoldering" H 3450 7100 50  0001 C CNN
F 3 "" H 3450 7100 50  0001 C CNN
	1    3450 7100
	1    0    0    -1  
$EndComp
$Comp
L C_Small C10
U 1 1 59342562
P 1600 7150
F 0 "C10" H 1610 7220 50  0000 L CNN
F 1 "1uF" H 1610 7070 50  0000 L CNN
F 2 "Capacitors_SMD:C_0805_HandSoldering" H 1600 7150 50  0001 C CNN
F 3 "" H 1600 7150 50  0001 C CNN
	1    1600 7150
	1    0    0    -1  
$EndComp
$Comp
L GND #PWR020
U 1 1 5934296A
P 3450 7400
F 0 "#PWR020" H 3450 7150 50  0001 C CNN
F 1 "GND" H 3450 7250 50  0000 C CNN
F 2 "" H 3450 7400 50  0001 C CNN
F 3 "" H 3450 7400 50  0001 C CNN
	1    3450 7400
	1    0    0    -1  
$EndComp
Text Label 2050 7150 2    60   ~ 0
STAT1
Text Label 2050 7250 2    60   ~ 0
STAT2
$Comp
L R_Small R18
U 1 1 59342D2B
P 3250 7950
F 0 "R18" V 3350 7950 50  0000 L CNN
F 1 "10k" V 3150 7900 50  0000 L CNN
F 2 "Resistors_SMD:R_0805_HandSoldering" H 3250 7950 50  0001 C CNN
F 3 "" H 3250 7950 50  0001 C CNN
	1    3250 7950
	0    1    1    0   
$EndComp
$Comp
L GND #PWR021
U 1 1 59342D8C
P 3400 8050
F 0 "#PWR021" H 3400 7800 50  0001 C CNN
F 1 "GND" H 3400 7900 50  0000 C CNN
F 2 "" H 3400 8050 50  0001 C CNN
F 3 "" H 3400 8050 50  0001 C CNN
	1    3400 8050
	1    0    0    -1  
$EndComp
Text Notes 750  8450 0    60   ~ 0
Thermal sensor not connected\n\nCharge timer check is enabled.\n\nCharge current = 210mAh aprox. 
$Comp
L R_Small R17
U 1 1 59343F93
P 2950 7400
F 0 "R17" H 2980 7420 50  0000 L CNN
F 1 "10k" H 2980 7360 50  0000 L CNN
F 2 "Resistors_SMD:R_0805_HandSoldering" H 2950 7400 50  0001 C CNN
F 3 "" H 2950 7400 50  0001 C CNN
	1    2950 7400
	1    0    0    -1  
$EndComp
$Comp
L GND #PWR022
U 1 1 59344129
P 2950 7750
F 0 "#PWR022" H 2950 7500 50  0001 C CNN
F 1 "GND" H 2950 7600 50  0000 C CNN
F 2 "" H 2950 7750 50  0001 C CNN
F 3 "" H 2950 7750 50  0001 C CNN
	1    2950 7750
	1    0    0    -1  
$EndComp
$Comp
L R_Small R16
U 1 1 59344421
P 2800 7500
F 0 "R16" H 2830 7520 50  0000 L CNN
F 1 "4.7k" H 2830 7460 50  0000 L CNN
F 2 "Resistors_SMD:R_0805_HandSoldering" H 2800 7500 50  0001 C CNN
F 3 "" H 2800 7500 50  0001 C CNN
	1    2800 7500
	1    0    0    -1  
$EndComp
$Comp
L R_Small R13
U 1 1 59344DBD
P 2450 9000
F 0 "R13" H 2480 9020 50  0000 L CNN
F 1 "1.5k" H 2480 8960 50  0000 L CNN
F 2 "Resistors_SMD:R_0805_HandSoldering" H 2450 9000 50  0001 C CNN
F 3 "" H 2450 9000 50  0001 C CNN
	1    2450 9000
	1    0    0    -1  
$EndComp
$Comp
L R_Small R14
U 1 1 59344EFA
P 2750 9100
F 0 "R14" V 2700 9200 50  0000 L CNN
F 1 "22" V 2650 9050 50  0000 L CNN
F 2 "Resistors_SMD:R_0805_HandSoldering" H 2750 9100 50  0001 C CNN
F 3 "" H 2750 9100 50  0001 C CNN
	1    2750 9100
	0    1    1    0   
$EndComp
$Comp
L R_Small R15
U 1 1 593452D4
P 2750 9200
F 0 "R15" V 2800 9300 50  0000 L CNN
F 1 "22" V 2850 9150 50  0000 L CNN
F 2 "Resistors_SMD:R_0805_HandSoldering" H 2750 9200 50  0001 C CNN
F 3 "" H 2750 9200 50  0001 C CNN
	1    2750 9200
	0    1    1    0   
$EndComp
Text Label 3100 9100 0    60   ~ 0
USB_D+
Text Label 3100 9200 0    60   ~ 0
USB_D-
$Comp
L R_Small R4
U 1 1 59352280
P 2800 5150
F 0 "R4" H 2830 5170 50  0000 L CNN
F 1 "4.7k" H 2830 5110 50  0000 L CNN
F 2 "Resistors_SMD:R_0805_HandSoldering" H 2800 5150 50  0001 C CNN
F 3 "" H 2800 5150 50  0001 C CNN
	1    2800 5150
	-1   0    0    1   
$EndComp
Text Label 2700 5300 2    60   ~ 0
TEMP_SENSOR
Text Label 11750 1050 1    60   ~ 0
VDD1
Text Label 11850 1050 1    60   ~ 0
VDD2
Text Label 11950 1050 1    60   ~ 0
VDD3
Text Label 12050 1050 1    60   ~ 0
VDDA
$Comp
L C_Small C1
U 1 1 59356D72
P 5550 7050
F 0 "C1" H 5560 7120 50  0000 L CNN
F 1 "104" H 5560 6970 50  0000 L CNN
F 2 "Capacitors_SMD:C_0805_HandSoldering" H 5550 7050 50  0001 C CNN
F 3 "" H 5550 7050 50  0001 C CNN
	1    5550 7050
	-1   0    0    1   
$EndComp
$Comp
L C_Small C2
U 1 1 59356DF0
P 5800 7050
F 0 "C2" H 5810 7120 50  0000 L CNN
F 1 "104" H 5810 6970 50  0000 L CNN
F 2 "Capacitors_SMD:C_0805_HandSoldering" H 5800 7050 50  0001 C CNN
F 3 "" H 5800 7050 50  0001 C CNN
	1    5800 7050
	-1   0    0    1   
$EndComp
$Comp
L C_Small C5
U 1 1 59356E72
P 6000 7050
F 0 "C5" H 6010 7120 50  0000 L CNN
F 1 "104" H 6010 6970 50  0000 L CNN
F 2 "Capacitors_SMD:C_0805_HandSoldering" H 6000 7050 50  0001 C CNN
F 3 "" H 6000 7050 50  0001 C CNN
	1    6000 7050
	-1   0    0    1   
$EndComp
$Comp
L C_Small C6
U 1 1 59356EF9
P 6250 7050
F 0 "C6" H 6260 7120 50  0000 L CNN
F 1 "104" H 6260 6970 50  0000 L CNN
F 2 "Capacitors_SMD:C_0805_HandSoldering" H 6250 7050 50  0001 C CNN
F 3 "" H 6250 7050 50  0001 C CNN
	1    6250 7050
	-1   0    0    1   
$EndComp
Text Label 5550 6850 1    60   ~ 0
VDD1
Text Label 5800 6850 1    60   ~ 0
VDD2
Text Label 6000 6850 1    60   ~ 0
VDD3
Text Label 6250 6850 1    60   ~ 0
VDDA
$Comp
L GND #PWR023
U 1 1 5935819F
P 11750 4750
F 0 "#PWR023" H 11750 4500 50  0001 C CNN
F 1 "GND" V 11750 4550 50  0000 C CNN
F 2 "" H 11750 4750 50  0001 C CNN
F 3 "" H 11750 4750 50  0001 C CNN
	1    11750 4750
	1    0    0    -1  
$EndComp
$Comp
L GND #PWR024
U 1 1 59358F4B
P 5900 7400
F 0 "#PWR024" H 5900 7150 50  0001 C CNN
F 1 "GND" H 5900 7250 50  0000 C CNN
F 2 "" H 5900 7400 50  0001 C CNN
F 3 "" H 5900 7400 50  0001 C CNN
	1    5900 7400
	1    0    0    -1  
$EndComp
$Comp
L +3.3V #PWR025
U 1 1 593598BD
P 6550 6900
F 0 "#PWR025" H 6550 6750 50  0001 C CNN
F 1 "+3.3V" H 6550 7040 50  0000 C CNN
F 2 "" H 6550 6900 50  0001 C CNN
F 3 "" H 6550 6900 50  0001 C CNN
	1    6550 6900
	1    0    0    -1  
$EndComp
$Comp
L GND #PWR026
U 1 1 5935A7E3
P 11850 4750
F 0 "#PWR026" H 11850 4500 50  0001 C CNN
F 1 "GND" V 11850 4550 50  0000 C CNN
F 2 "" H 11850 4750 50  0001 C CNN
F 3 "" H 11850 4750 50  0001 C CNN
	1    11850 4750
	1    0    0    -1  
$EndComp
$Comp
L GND #PWR027
U 1 1 5935A860
P 11950 4750
F 0 "#PWR027" H 11950 4500 50  0001 C CNN
F 1 "GND" V 11950 4550 50  0000 C CNN
F 2 "" H 11950 4750 50  0001 C CNN
F 3 "" H 11950 4750 50  0001 C CNN
	1    11950 4750
	1    0    0    -1  
$EndComp
$Comp
L GND #PWR028
U 1 1 5935A8DD
P 12050 4750
F 0 "#PWR028" H 12050 4500 50  0001 C CNN
F 1 "GND" V 12050 4550 50  0000 C CNN
F 2 "" H 12050 4750 50  0001 C CNN
F 3 "" H 12050 4750 50  0001 C CNN
	1    12050 4750
	1    0    0    -1  
$EndComp
Text Label 9000 2100 2    60   ~ 0
OSCIN
Text Label 9000 2200 2    60   ~ 0
OSCOUT
Text Label 8950 1500 2    60   ~ 0
RESET
Text Label 9000 2500 2    60   ~ 0
PC14
Text Label 9000 2600 2    60   ~ 0
PC15
Text Label 9000 4000 2    60   ~ 0
BUT_BR
$Comp
L +3.3V #PWR029
U 1 1 5936357E
P 1750 1200
F 0 "#PWR029" H 1750 1050 50  0001 C CNN
F 1 "+3.3V" H 1750 1340 50  0000 C CNN
F 2 "" H 1750 1200 50  0001 C CNN
F 3 "" H 1750 1200 50  0001 C CNN
	1    1750 1200
	-1   0    0    -1  
$EndComp
$Comp
L +3.3V #PWR030
U 1 1 593635E8
P 1750 1550
F 0 "#PWR030" H 1750 1400 50  0001 C CNN
F 1 "+3.3V" H 1750 1690 50  0000 C CNN
F 2 "" H 1750 1550 50  0001 C CNN
F 3 "" H 1750 1550 50  0001 C CNN
	1    1750 1550
	-1   0    0    -1  
$EndComp
$Comp
L +3.3V #PWR031
U 1 1 59363652
P 1750 1950
F 0 "#PWR031" H 1750 1800 50  0001 C CNN
F 1 "+3.3V" H 1750 2090 50  0000 C CNN
F 2 "" H 1750 1950 50  0001 C CNN
F 3 "" H 1750 1950 50  0001 C CNN
	1    1750 1950
	-1   0    0    -1  
$EndComp
$Comp
L +3.3V #PWR032
U 1 1 593636BC
P 1750 2350
F 0 "#PWR032" H 1750 2200 50  0001 C CNN
F 1 "+3.3V" H 1750 2490 50  0000 C CNN
F 2 "" H 1750 2350 50  0001 C CNN
F 3 "" H 1750 2350 50  0001 C CNN
	1    1750 2350
	-1   0    0    -1  
$EndComp
Text Label 14950 2800 0    60   ~ 0
BUT_BL
Text Label 9000 3700 2    60   ~ 0
BUT_TL
Text Label 9000 3300 2    60   ~ 0
BUT_TR
$Comp
L R_Small R1
U 1 1 5936AD77
P 1050 3900
F 0 "R1" H 1080 3920 50  0000 L CNN
F 1 "33k" H 1080 3860 50  0000 L CNN
F 2 "Resistors_SMD:R_0805_HandSoldering" H 1050 3900 50  0001 C CNN
F 3 "" H 1050 3900 50  0001 C CNN
	1    1050 3900
	1    0    0    -1  
$EndComp
$Comp
L R_Small R2
U 1 1 5936AE12
P 1050 4200
F 0 "R2" H 1080 4220 50  0000 L CNN
F 1 "33k" H 1080 4160 50  0000 L CNN
F 2 "Resistors_SMD:R_0805_HandSoldering" H 1050 4200 50  0001 C CNN
F 3 "" H 1050 4200 50  0001 C CNN
	1    1050 4200
	1    0    0    -1  
$EndComp
$Comp
L GND #PWR033
U 1 1 5936AF85
P 1050 4350
F 0 "#PWR033" H 1050 4100 50  0001 C CNN
F 1 "GND" H 1050 4200 50  0000 C CNN
F 2 "" H 1050 4350 50  0001 C CNN
F 3 "" H 1050 4350 50  0001 C CNN
	1    1050 4350
	1    0    0    -1  
$EndComp
Text Label 1200 4050 0    60   ~ 0
VBAT_MEAS
Text Label 14950 3200 0    60   ~ 0
VBAT_MEAS
Text Label 9000 2800 2    60   ~ 0
STAT1
Text Label 9000 2900 2    60   ~ 0
STAT2
Text Label 14950 3900 0    60   ~ 0
USB_D-
Text Label 14950 4000 0    60   ~ 0
USB_D+
NoConn ~ 9050 1900
Text Label 9000 3000 2    60   ~ 0
BOOT1
Text Label 9000 1700 2    60   ~ 0
BOOT0
Text Label 7650 6950 2    60   ~ 0
BOOT1
$Comp
L GND #PWR034
U 1 1 5937E65F
P 7750 7250
F 0 "#PWR034" H 7750 7000 50  0001 C CNN
F 1 "GND" H 7750 7100 50  0000 C CNN
F 2 "" H 7750 7250 50  0001 C CNN
F 3 "" H 7750 7250 50  0001 C CNN
	1    7750 7250
	1    0    0    -1  
$EndComp
Text Label 14950 4100 0    60   ~ 0
SWDIO
Text Label 14950 4200 0    60   ~ 0
SWCLK
$Comp
L CONN_02X02 J5
U 1 1 59387DB2
P 11500 8200
F 0 "J5" H 11500 8350 50  0000 C CNN
F 1 "SWD" H 11500 8050 50  0000 C CNN
F 2 "Pin_Headers:Pin_Header_Straight_1x04_Pitch2.54mm" H 11500 7000 50  0001 C CNN
F 3 "" H 11500 7000 50  0001 C CNN
	1    11500 8200
	1    0    0    -1  
$EndComp
$Comp
L GND #PWR035
U 1 1 59387ECA
P 11100 8150
F 0 "#PWR035" H 11100 7900 50  0001 C CNN
F 1 "GND" H 11100 8000 50  0000 C CNN
F 2 "" H 11100 8150 50  0001 C CNN
F 3 "" H 11100 8150 50  0001 C CNN
	1    11100 8150
	-1   0    0    1   
$EndComp
$Comp
L +3.3V #PWR036
U 1 1 59387F42
P 11100 8250
F 0 "#PWR036" H 11100 8100 50  0001 C CNN
F 1 "+3.3V" H 11100 8390 50  0000 C CNN
F 2 "" H 11100 8250 50  0001 C CNN
F 3 "" H 11100 8250 50  0001 C CNN
	1    11100 8250
	-1   0    0    1   
$EndComp
Text Label 11850 8150 0    60   ~ 0
SWDIO
Text Label 11850 8250 0    60   ~ 0
SWCLK
Text Label 14950 4300 0    60   ~ 0
HALL
Text Label 14950 3600 0    60   ~ 0
TEMP_SENSOR
Text Label 9000 3400 2    60   ~ 0
I2C1_SCL
Text Label 9000 3500 2    60   ~ 0
I2C1_SDA
Text Label 9000 3800 2    60   ~ 0
I2C2_SCL
Text Label 9000 3900 2    60   ~ 0
I2C2_SDA
Text Label 6650 1500 0    60   ~ 0
I2C2_SDA
Text Label 6650 1600 0    60   ~ 0
I2C2_SCL
$Comp
L GND #PWR037
U 1 1 593AB4FC
P 6250 2000
F 0 "#PWR037" H 6250 1750 50  0001 C CNN
F 1 "GND" H 6250 1850 50  0000 C CNN
F 2 "" H 6250 2000 50  0001 C CNN
F 3 "" H 6250 2000 50  0001 C CNN
	1    6250 2000
	1    0    0    -1  
$EndComp
$Comp
L +3.3V #PWR038
U 1 1 593AB66E
P 6250 1300
F 0 "#PWR038" H 6250 1150 50  0001 C CNN
F 1 "+3.3V" H 6250 1440 50  0000 C CNN
F 2 "" H 6250 1300 50  0001 C CNN
F 3 "" H 6250 1300 50  0001 C CNN
	1    6250 1300
	1    0    0    -1  
$EndComp
NoConn ~ 9050 3200
NoConn ~ 9050 3600
NoConn ~ 9050 4100
NoConn ~ 9050 4200
NoConn ~ 9050 4300
NoConn ~ 14850 3500
NoConn ~ 14850 3400
NoConn ~ 14850 3300
$Comp
L PWR_FLAG #FLG039
U 1 1 593AEEC9
P 6250 7400
F 0 "#FLG039" H 6250 7475 50  0001 C CNN
F 1 "PWR_FLAG" H 6250 7550 50  0000 C CNN
F 2 "" H 6250 7400 50  0001 C CNN
F 3 "" H 6250 7400 50  0001 C CNN
	1    6250 7400
	-1   0    0    1   
$EndComp
$Comp
L PWR_FLAG #FLG040
U 1 1 593B0196
P 2800 8850
F 0 "#FLG040" H 2800 8925 50  0001 C CNN
F 1 "PWR_FLAG" H 2800 9000 50  0000 C CNN
F 2 "" H 2800 8850 50  0001 C CNN
F 3 "" H 2800 8850 50  0001 C CNN
	1    2800 8850
	1    0    0    -1  
$EndComp
Text Notes 1650 6350 0    118  ~ 0
BATTERY CHARGING
Text Notes 6100 9050 0    118  ~ 0
POWER INPUT AND REGULATION
$Comp
L D_Schottky_Small D3
U 1 1 593E8DF9
P 5900 9850
F 0 "D3" H 5850 9930 50  0000 L CNN
F 1 "1N5819" H 5700 9750 50  0000 L CNN
F 2 "Diodes_SMD:D_SOD-123" V 5900 9850 50  0001 C CNN
F 3 "" V 5900 9850 50  0001 C CNN
	1    5900 9850
	0    1    1    0   
$EndComp
$Comp
L +5V #PWR041
U 1 1 593E8E8A
P 5600 10000
F 0 "#PWR041" H 5600 9850 50  0001 C CNN
F 1 "+5V" H 5600 10140 50  0000 C CNN
F 2 "" H 5600 10000 50  0001 C CNN
F 3 "" H 5600 10000 50  0001 C CNN
	1    5600 10000
	-1   0    0    1   
$EndComp
$Comp
L R_Small R19
U 1 1 593E8F06
P 5600 9800
F 0 "R19" H 5630 9820 50  0000 L CNN
F 1 "10k" H 5630 9760 50  0000 L CNN
F 2 "Resistors_SMD:R_0805_HandSoldering" H 5600 9800 50  0001 C CNN
F 3 "" H 5600 9800 50  0001 C CNN
	1    5600 9800
	-1   0    0    1   
$EndComp
$Comp
L GND #PWR042
U 1 1 593E904F
P 5600 9600
F 0 "#PWR042" H 5600 9350 50  0001 C CNN
F 1 "GND" H 5600 9450 50  0000 C CNN
F 2 "" H 5600 9600 50  0001 C CNN
F 3 "" H 5600 9600 50  0001 C CNN
	1    5600 9600
	-1   0    0    1   
$EndComp
$Comp
L IRF7425 Q1
U 1 1 593E9E91
P 6500 9800
F 0 "Q1" H 6450 10100 50  0000 L CNN
F 1 "IRF7425" H 6350 9550 50  0000 L CNN
F 2 "Housings_SOIC:SOIC-8_3.9x4.9mm_Pitch1.27mm" H 6500 10200 50  0001 C CIN
F 3 "" V 6500 9800 50  0001 L CNN
	1    6500 9800
	1    0    0    -1  
$EndComp
$Comp
L GS3 J8
U 1 1 593EB40F
P 7350 9450
F 0 "J8" H 7400 9650 50  0000 C CNN
F 1 "GS3" H 7400 9251 50  0000 C CNN
F 2 "Connectors:GS3" V 7438 9376 50  0001 C CNN
F 3 "" H 7350 9450 50  0001 C CNN
	1    7350 9450
	0    -1   -1   0   
$EndComp
Text Label 5900 9400 0    59   ~ 0
VIN
Text Label 7800 9500 0    59   ~ 0
VIN
Text Notes 4800 11100 0    59   ~ 0
This allows choosing 5V (USB) over VBAT when USB is connected.\nThis whole circuit can be soldered or not. If not, J8 should join 2,3.\nIf soldered, J8 should join 1,2.
$Comp
L PWR_FLAG #FLG043
U 1 1 59401611
P 8150 9350
F 0 "#FLG043" H 8150 9425 50  0001 C CNN
F 1 "PWR_FLAG" H 8150 9500 50  0000 C CNN
F 2 "" H 8150 9350 50  0001 C CNN
F 3 "" H 8150 9350 50  0001 C CNN
	1    8150 9350
	1    0    0    -1  
$EndComp
Text Label 1100 3600 0    59   ~ 0
VIN
$Comp
L CONN_01X02 J2
U 1 1 5934B3B4
P 2350 10350
F 0 "J2" H 2350 10500 50  0000 C CNN
F 1 "BATT" V 2450 10350 50  0000 C CNN
F 2 "Pin_Headers:Pin_Header_Straight_1x02_Pitch2.54mm" H 2350 10350 50  0001 C CNN
F 3 "" H 2350 10350 50  0001 C CNN
	1    2350 10350
	1    0    0    -1  
$EndComp
$Comp
L C_Small C12
U 1 1 593502DD
P 9150 9750
F 0 "C12" H 9160 9820 50  0000 L CNN
F 1 "1uF" H 9160 9670 50  0000 L CNN
F 2 "Capacitors_SMD:C_0805_HandSoldering" H 9150 9750 50  0001 C CNN
F 3 "" H 9150 9750 50  0001 C CNN
	1    9150 9750
	1    0    0    -1  
$EndComp
$Comp
L GND #PWR044
U 1 1 59350374
P 9150 9950
F 0 "#PWR044" H 9150 9700 50  0001 C CNN
F 1 "GND" H 9150 9800 50  0000 C CNN
F 2 "" H 9150 9950 50  0001 C CNN
F 3 "" H 9150 9950 50  0001 C CNN
	1    9150 9950
	1    0    0    -1  
$EndComp
NoConn ~ 14850 3100
NoConn ~ 14850 3700
NoConn ~ 14850 3800
NoConn ~ 14850 3000
Text Label 8400 6900 2    60   ~ 0
BOOT0
Connection ~ 2450 8900
Wire Wire Line
	2800 8900 2800 8850
Wire Wire Line
	5900 7400 6250 7400
Connection ~ 5800 1600
Wire Wire Line
	5800 1500 5850 1500
Connection ~ 5800 1700
Wire Wire Line
	5800 1600 5850 1600
Wire Wire Line
	5800 1500 5800 1950
Wire Wire Line
	5850 1700 5800 1700
Connection ~ 6250 1950
Wire Wire Line
	6250 1900 6250 2000
Wire Wire Line
	5800 1950 6700 1950
Wire Wire Line
	6700 1950 6700 1700
Wire Wire Line
	6700 1700 6650 1700
Wire Wire Line
	9000 3800 9050 3800
Wire Wire Line
	9000 3900 9050 3900
Wire Wire Line
	14850 4300 14950 4300
Wire Wire Line
	9000 3500 9050 3500
Wire Wire Line
	9000 3400 9050 3400
Wire Wire Line
	14950 3600 14850 3600
Wire Wire Line
	11750 8250 11850 8250
Wire Wire Line
	11750 8150 11850 8150
Wire Wire Line
	11100 8250 11250 8250
Wire Wire Line
	11250 8150 11100 8150
Wire Wire Line
	14850 4200 14950 4200
Wire Wire Line
	14850 4100 14950 4100
Wire Wire Line
	7750 7200 7750 7250
Wire Wire Line
	7750 6950 7750 7000
Wire Wire Line
	7650 6950 7750 6950
Wire Wire Line
	9000 3000 9050 3000
Wire Wire Line
	9000 1700 9050 1700
Wire Wire Line
	14850 3900 14950 3900
Wire Wire Line
	14850 4000 14950 4000
Wire Wire Line
	9000 2900 9050 2900
Wire Wire Line
	9000 2800 9050 2800
Wire Wire Line
	14850 3200 14950 3200
Connection ~ 1050 4050
Wire Wire Line
	1050 4050 1200 4050
Wire Wire Line
	1050 4000 1050 4100
Wire Wire Line
	1050 4300 1050 4350
Wire Wire Line
	1050 3600 1050 3800
Wire Wire Line
	9000 2600 9050 2600
Wire Wire Line
	9000 2500 9050 2500
Wire Wire Line
	8950 1500 9050 1500
Wire Wire Line
	9050 2200 9000 2200
Wire Wire Line
	9050 2100 9000 2100
Connection ~ 6250 6900
Connection ~ 6000 6900
Connection ~ 5550 6900
Connection ~ 5800 6900
Wire Wire Line
	5550 6900 6550 6900
Wire Wire Line
	6250 6850 6250 6950
Wire Wire Line
	6000 6850 6000 6950
Wire Wire Line
	5800 6850 5800 6950
Wire Wire Line
	5550 6850 5550 6950
Connection ~ 5900 7250
Wire Wire Line
	5900 7250 5900 7400
Connection ~ 5800 7250
Wire Wire Line
	5550 7250 5550 7150
Connection ~ 6000 7250
Wire Wire Line
	5800 7250 5800 7150
Wire Wire Line
	6000 7250 6000 7150
Wire Wire Line
	5550 7250 6250 7250
Wire Wire Line
	6250 7250 6250 7150
Wire Wire Line
	12050 1100 12050 1050
Wire Wire Line
	11950 1100 11950 1050
Wire Wire Line
	11850 1100 11850 1050
Wire Wire Line
	11750 1100 11750 1050
Wire Wire Line
	12050 4700 12050 4750
Wire Wire Line
	11950 4700 11950 4750
Wire Wire Line
	11850 4700 11850 4750
Wire Wire Line
	11750 4750 11750 4700
Connection ~ 2800 5300
Wire Wire Line
	2800 5000 3050 5000
Wire Wire Line
	2800 5050 2800 5000
Wire Wire Line
	2800 5300 2800 5250
Wire Wire Line
	2700 5300 3200 5300
Wire Wire Line
	3350 7950 3400 7950
Wire Wire Line
	14250 8950 14950 8950
Wire Wire Line
	14250 8350 14950 8350
Connection ~ 14850 8350
Connection ~ 14850 8950
Wire Wire Line
	1850 10400 2150 10400
Wire Wire Line
	1900 9500 1900 9550
Connection ~ 2000 9550
Wire Wire Line
	2350 9300 2300 9300
Wire Wire Line
	2350 9550 2350 9300
Wire Wire Line
	1900 9550 2350 9550
Wire Wire Line
	2300 9200 2650 9200
Connection ~ 2450 9100
Wire Wire Line
	2850 9200 3100 9200
Wire Wire Line
	2850 9100 3100 9100
Wire Wire Line
	2300 9100 2650 9100
Connection ~ 2950 7650
Wire Wire Line
	2800 7650 2950 7650
Wire Wire Line
	2800 7600 2800 7650
Wire Wire Line
	2800 7350 2800 7400
Wire Wire Line
	2950 7500 2950 7750
Wire Wire Line
	2950 7250 2950 7300
Wire Wire Line
	2800 7250 2950 7250
Wire Wire Line
	3150 7150 3150 7950
Wire Wire Line
	3400 7950 3400 8050
Wire Wire Line
	3450 7400 3450 7200
Wire Wire Line
	3450 6950 3450 7000
Connection ~ 1900 7350
Wire Wire Line
	1600 7250 1600 7350
Wire Wire Line
	1600 6950 1600 7050
Wire Wire Line
	2800 7150 3150 7150
Connection ~ 2950 6950
Wire Wire Line
	2950 7050 2800 7050
Wire Wire Line
	2950 6850 2950 7050
Wire Wire Line
	2800 6950 3450 6950
Wire Wire Line
	1900 7350 1900 7450
Wire Wire Line
	1600 7350 2050 7350
Connection ~ 1900 6950
Wire Wire Line
	1900 7050 2050 7050
Wire Wire Line
	1900 6850 1900 7050
Wire Wire Line
	1600 6950 2050 6950
Wire Wire Line
	2000 9500 2000 9650
Wire Wire Line
	2450 8900 2450 8850
Wire Wire Line
	2300 8900 2800 8900
Connection ~ 13800 7350
Wire Wire Line
	13600 7350 14000 7350
Wire Wire Line
	13800 7950 13800 7350
Wire Wire Line
	14000 7950 13800 7950
Connection ~ 14500 7950
Wire Wire Line
	14500 7800 14500 7950
Connection ~ 14500 7350
Wire Wire Line
	14500 7500 14500 7350
Wire Wire Line
	14200 7350 14950 7350
Wire Wire Line
	14200 7950 14950 7950
Wire Wire Line
	13550 8350 14050 8350
Wire Wire Line
	13850 8950 13850 8350
Wire Wire Line
	14050 8950 13850 8950
Connection ~ 14550 8950
Wire Wire Line
	14550 8800 14550 8950
Connection ~ 14550 8350
Wire Wire Line
	14550 8500 14550 8350
Wire Wire Line
	14850 8950 14850 8750
Wire Wire Line
	14850 8350 14850 8550
Connection ~ 14250 6550
Wire Wire Line
	14250 6450 14250 6600
Wire Wire Line
	14000 6550 14250 6550
Connection ~ 14250 6150
Wire Wire Line
	14000 6150 14650 6150
Wire Wire Line
	14250 6100 14250 6250
Wire Wire Line
	14250 5850 14250 5900
Connection ~ 8350 9650
Wire Wire Line
	7950 10350 7950 9650
Wire Wire Line
	8350 10350 7950 10350
Wire Wire Line
	8350 10250 8350 10350
Wire Wire Line
	8350 9850 8350 10050
Wire Wire Line
	8450 9850 8350 9850
Wire Wire Line
	8450 9750 8150 9750
Wire Wire Line
	9050 9650 9150 9650
Wire Wire Line
	2600 4100 2600 4200
Wire Wire Line
	2700 4100 2600 4100
Wire Wire Line
	2300 3900 2300 3950
Wire Wire Line
	2700 3900 2300 3900
Wire Wire Line
	2650 4000 2700 4000
Wire Wire Line
	1600 10300 1600 10400
Wire Wire Line
	2150 10300 1600 10300
Wire Wire Line
	3050 5000 3050 5200
Wire Wire Line
	3050 5200 3200 5200
Wire Wire Line
	3050 5400 3050 5450
Wire Wire Line
	3200 5400 3050 5400
Wire Wire Line
	1250 5450 1350 5450
Wire Wire Line
	1250 5550 1350 5550
Wire Wire Line
	900  5350 900  5300
Wire Wire Line
	1900 1200 1750 1200
Wire Wire Line
	1900 1550 1750 1550
Wire Wire Line
	1900 1950 1750 1950
Wire Wire Line
	1900 2350 1750 2350
Wire Wire Line
	2400 2350 2300 2350
Wire Wire Line
	2400 1950 2300 1950
Wire Wire Line
	2400 1550 2300 1550
Wire Wire Line
	2400 1200 2300 1200
Wire Notes Line
	750  6100 4300 6100
Wire Notes Line
	4300 6100 4300 10900
Wire Notes Line
	4650 8850 10200 8850
Wire Notes Line
	10200 8850 10200 11050
Wire Notes Line
	10200 11050 10150 11050
Wire Wire Line
	6800 9600 6950 9600
Wire Wire Line
	6950 9600 6950 9900
Wire Wire Line
	6950 9800 6800 9800
Connection ~ 6950 9700
Wire Wire Line
	6950 9900 6800 9900
Connection ~ 6950 9800
Connection ~ 7950 9650
Wire Wire Line
	6800 9700 7250 9700
Wire Wire Line
	7450 9650 8450 9650
Wire Wire Line
	7250 9700 7250 9600
Wire Wire Line
	7450 9600 7450 9650
Wire Wire Line
	5600 9950 6200 9950
Wire Wire Line
	6200 9700 5900 9700
Wire Wire Line
	6150 9600 6150 9800
Wire Wire Line
	6150 9600 6200 9600
Connection ~ 6150 9700
Wire Wire Line
	6150 9800 6200 9800
Wire Wire Line
	5600 10000 5600 9900
Connection ~ 5900 9950
Connection ~ 5600 9950
Wire Wire Line
	5600 9700 5600 9600
Connection ~ 5900 9700
Wire Wire Line
	5900 9400 5900 9750
Wire Wire Line
	7800 9500 7750 9500
Wire Wire Line
	7750 9500 7750 9650
Connection ~ 7750 9650
Wire Notes Line
	5350 10400 5350 9200
Wire Notes Line
	5350 9200 7050 9200
Wire Notes Line
	7050 9200 7050 10400
Wire Notes Line
	7050 10400 5350 10400
Wire Wire Line
	8150 9350 8150 9650
Connection ~ 8150 9650
Wire Wire Line
	1050 3600 1100 3600
Wire Wire Line
	9150 9850 9150 9950
Wire Wire Line
	9000 4000 9050 4000
$Comp
L R_Small R11
U 1 1 5937E5EA
P 7750 7100
F 0 "R11" H 7780 7120 50  0000 L CNN
F 1 "100k" H 7780 7060 50  0000 L CNN
F 2 "Resistors_SMD:R_0805_HandSoldering" H 7750 7100 50  0001 C CNN
F 3 "" H 7750 7100 50  0001 C CNN
	1    7750 7100
	1    0    0    -1  
$EndComp
$Comp
L R_Small R5
U 1 1 5944998F
P 8550 7100
F 0 "R5" H 8580 7120 50  0000 L CNN
F 1 "100k" H 8580 7060 50  0000 L CNN
F 2 "Resistors_SMD:R_0805_HandSoldering" H 8550 7100 50  0001 C CNN
F 3 "" H 8550 7100 50  0001 C CNN
	1    8550 7100
	1    0    0    -1  
$EndComp
Wire Wire Line
	8400 6900 8550 6900
Wire Wire Line
	8550 6900 8550 7000
$Comp
L GND #PWR045
U 1 1 59449B61
P 8550 7250
F 0 "#PWR045" H 8550 7000 50  0001 C CNN
F 1 "GND" H 8550 7100 50  0000 C CNN
F 2 "" H 8550 7250 50  0001 C CNN
F 3 "" H 8550 7250 50  0001 C CNN
	1    8550 7250
	1    0    0    -1  
$EndComp
Wire Wire Line
	8550 7200 8550 7250
Text Notes 650  10100 0    60   ~ 0
BUG!\nEl pull-up debería ir sobre USB_D+ (es decir, despues de la resistencia en serie de 22).\nIgualmente este circuito puede no andar bien, igual que la BluePill.
Wire Wire Line
	9000 3700 9050 3700
Wire Wire Line
	9000 3300 9050 3300
NoConn ~ 9050 3100
$Comp
L GND #PWR046
U 1 1 5949B331
P 13550 8350
F 0 "#PWR046" H 13550 8100 50  0001 C CNN
F 1 "GND" H 13550 8200 50  0000 C CNN
F 2 "" H 13550 8350 50  0001 C CNN
F 3 "" H 13550 8350 50  0001 C CNN
	1    13550 8350
	0    1    1    0   
$EndComp
Connection ~ 13850 8350
$Comp
L LED_Small D1
U 1 1 5949D1CC
P 5550 5350
F 0 "D1" H 5500 5475 50  0000 L CNN
F 1 "STAT" H 5450 5250 50  0000 L CNN
F 2 "LEDs:LED_0805" V 5550 5350 50  0001 C CNN
F 3 "" V 5550 5350 50  0001 C CNN
	1    5550 5350
	0    -1   -1   0   
$EndComp
$Comp
L R_Small R6
U 1 1 5949D779
P 5550 5050
F 0 "R6" H 5580 5070 50  0000 L CNN
F 1 "560" H 5580 5010 50  0000 L CNN
F 2 "Resistors_SMD:R_0805_HandSoldering" H 5550 5050 50  0001 C CNN
F 3 "" H 5550 5050 50  0001 C CNN
	1    5550 5050
	1    0    0    -1  
$EndComp
$Comp
L +3.3V #PWR047
U 1 1 5949DC76
P 5550 4800
F 0 "#PWR047" H 5550 4650 50  0001 C CNN
F 1 "+3.3V" H 5550 4940 50  0000 C CNN
F 2 "" H 5550 4800 50  0001 C CNN
F 3 "" H 5550 4800 50  0001 C CNN
	1    5550 4800
	1    0    0    -1  
$EndComp
Text Label 5700 5700 0    60   ~ 0
USR_LED
Wire Wire Line
	5550 4800 5550 4950
Wire Wire Line
	5550 5150 5550 5250
Wire Wire Line
	5550 5450 5550 5700
Wire Wire Line
	5550 5700 5700 5700
Text Label 9000 2400 2    60   ~ 0
USR_LED
Wire Wire Line
	9050 2400 9000 2400
Text Notes 6750 3050 0    60   ~ 0
NOTE: PB3/PB4 are by default\nused as JTAG when SWD is enabled\non STM32duino
NoConn ~ 14850 2900
Wire Wire Line
	14850 2800 14950 2800
Wire Wire Line
	1150 5250 1350 5250
Wire Wire Line
	1350 5350 900  5350
$EndSCHEMATC
