G04 #@! TF.FileFunction,Legend,Top*
%FSLAX46Y46*%
G04 Gerber Fmt 4.6, Leading zero omitted, Abs format (unit mm)*
G04 Created by KiCad (PCBNEW 4.0.6) date Tue Jul  4 22:01:03 2017*
%MOMM*%
%LPD*%
G01*
G04 APERTURE LIST*
%ADD10C,0.100000*%
%ADD11C,0.200000*%
%ADD12C,0.187500*%
%ADD13C,0.120000*%
%ADD14C,0.150000*%
%ADD15C,0.254000*%
%ADD16C,0.010000*%
%ADD17C,0.125000*%
%ADD18C,0.152400*%
%ADD19R,1.600000X1.600000*%
%ADD20R,1.900000X1.700000*%
%ADD21C,2.400000*%
%ADD22R,1.650000X1.900000*%
%ADD23R,1.700000X0.650000*%
%ADD24R,0.650000X1.700000*%
%ADD25R,1.900000X1.650000*%
%ADD26R,1.600000X1.300000*%
%ADD27R,1.370000X1.670000*%
%ADD28R,1.950000X1.000000*%
%ADD29R,1.700000X1.900000*%
%ADD30C,1.400000*%
%ADD31R,1.400000X1.400000*%
%ADD32R,1.000000X1.950000*%
%ADD33R,1.460000X1.050000*%
%ADD34R,1.800000X0.700000*%
%ADD35C,2.500000*%
%ADD36C,2.150000*%
%ADD37C,2.398980*%
%ADD38R,2.100000X2.100000*%
%ADD39O,2.100000X2.100000*%
%ADD40C,2.600000*%
%ADD41R,1.780000X0.850000*%
%ADD42R,2.500000X1.875000*%
%ADD43R,2.300000X2.775000*%
%ADD44R,2.300000X1.575000*%
G04 APERTURE END LIST*
D10*
D11*
X134000000Y-64700000D02*
X134000000Y-58600000D01*
X145900000Y-64700000D02*
X134000000Y-64700000D01*
X145900000Y-58600000D02*
X145900000Y-64700000D01*
X134000000Y-58600000D02*
X145900000Y-58600000D01*
X124750000Y-75250000D02*
X116750000Y-75250000D01*
X124750000Y-72500000D02*
X124750000Y-75250000D01*
X132500000Y-72500000D02*
X124750000Y-72500000D01*
X132500000Y-65250000D02*
X132500000Y-72500000D01*
D12*
X155528571Y-79733929D02*
X155635714Y-79769643D01*
X155671429Y-79805357D01*
X155707143Y-79876786D01*
X155707143Y-79983929D01*
X155671429Y-80055357D01*
X155635714Y-80091071D01*
X155564286Y-80126786D01*
X155278571Y-80126786D01*
X155278571Y-79376786D01*
X155528571Y-79376786D01*
X155600000Y-79412500D01*
X155635714Y-79448214D01*
X155671429Y-79519643D01*
X155671429Y-79591071D01*
X155635714Y-79662500D01*
X155600000Y-79698214D01*
X155528571Y-79733929D01*
X155278571Y-79733929D01*
X156028571Y-80126786D02*
X156028571Y-79626786D01*
X156028571Y-79376786D02*
X155992857Y-79412500D01*
X156028571Y-79448214D01*
X156064286Y-79412500D01*
X156028571Y-79376786D01*
X156028571Y-79448214D01*
X156707143Y-80091071D02*
X156635714Y-80126786D01*
X156492857Y-80126786D01*
X156421429Y-80091071D01*
X156385714Y-80055357D01*
X156350000Y-79983929D01*
X156350000Y-79769643D01*
X156385714Y-79698214D01*
X156421429Y-79662500D01*
X156492857Y-79626786D01*
X156635714Y-79626786D01*
X156707143Y-79662500D01*
X156957143Y-79626786D02*
X157135714Y-80126786D01*
X157314286Y-79626786D02*
X157135714Y-80126786D01*
X157064286Y-80305357D01*
X157028571Y-80341071D01*
X156957143Y-80376786D01*
X157921429Y-80091071D02*
X157850000Y-80126786D01*
X157707143Y-80126786D01*
X157635715Y-80091071D01*
X157600000Y-80055357D01*
X157564286Y-79983929D01*
X157564286Y-79769643D01*
X157600000Y-79698214D01*
X157635715Y-79662500D01*
X157707143Y-79626786D01*
X157850000Y-79626786D01*
X157921429Y-79662500D01*
X158350000Y-80126786D02*
X158278572Y-80091071D01*
X158242857Y-80019643D01*
X158242857Y-79376786D01*
X158921429Y-80091071D02*
X158850000Y-80126786D01*
X158707143Y-80126786D01*
X158635714Y-80091071D01*
X158600000Y-80019643D01*
X158600000Y-79733929D01*
X158635714Y-79662500D01*
X158707143Y-79626786D01*
X158850000Y-79626786D01*
X158921429Y-79662500D01*
X158957143Y-79733929D01*
X158957143Y-79805357D01*
X158600000Y-79876786D01*
X156850001Y-81367857D02*
X156814287Y-81403571D01*
X156707144Y-81439286D01*
X156635715Y-81439286D01*
X156528572Y-81403571D01*
X156457144Y-81332143D01*
X156421429Y-81260714D01*
X156385715Y-81117857D01*
X156385715Y-81010714D01*
X156421429Y-80867857D01*
X156457144Y-80796429D01*
X156528572Y-80725000D01*
X156635715Y-80689286D01*
X156707144Y-80689286D01*
X156814287Y-80725000D01*
X156850001Y-80760714D01*
X157278572Y-81439286D02*
X157207144Y-81403571D01*
X157171429Y-81367857D01*
X157135715Y-81296429D01*
X157135715Y-81082143D01*
X157171429Y-81010714D01*
X157207144Y-80975000D01*
X157278572Y-80939286D01*
X157385715Y-80939286D01*
X157457144Y-80975000D01*
X157492858Y-81010714D01*
X157528572Y-81082143D01*
X157528572Y-81296429D01*
X157492858Y-81367857D01*
X157457144Y-81403571D01*
X157385715Y-81439286D01*
X157278572Y-81439286D01*
X157850000Y-81439286D02*
X157850000Y-80939286D01*
X157850000Y-81010714D02*
X157885715Y-80975000D01*
X157957143Y-80939286D01*
X158064286Y-80939286D01*
X158135715Y-80975000D01*
X158171429Y-81046429D01*
X158171429Y-81439286D01*
X158171429Y-81046429D02*
X158207143Y-80975000D01*
X158278572Y-80939286D01*
X158385715Y-80939286D01*
X158457143Y-80975000D01*
X158492858Y-81046429D01*
X158492858Y-81439286D01*
X158850000Y-80939286D02*
X158850000Y-81689286D01*
X158850000Y-80975000D02*
X158921429Y-80939286D01*
X159064286Y-80939286D01*
X159135715Y-80975000D01*
X159171429Y-81010714D01*
X159207143Y-81082143D01*
X159207143Y-81296429D01*
X159171429Y-81367857D01*
X159135715Y-81403571D01*
X159064286Y-81439286D01*
X158921429Y-81439286D01*
X158850000Y-81403571D01*
X159850000Y-81439286D02*
X159850000Y-81046429D01*
X159814286Y-80975000D01*
X159742857Y-80939286D01*
X159600000Y-80939286D01*
X159528571Y-80975000D01*
X159850000Y-81403571D02*
X159778571Y-81439286D01*
X159600000Y-81439286D01*
X159528571Y-81403571D01*
X159492857Y-81332143D01*
X159492857Y-81260714D01*
X159528571Y-81189286D01*
X159600000Y-81153571D01*
X159778571Y-81153571D01*
X159850000Y-81117857D01*
X160207142Y-80939286D02*
X160207142Y-81439286D01*
X160207142Y-81010714D02*
X160242857Y-80975000D01*
X160314285Y-80939286D01*
X160421428Y-80939286D01*
X160492857Y-80975000D01*
X160528571Y-81046429D01*
X160528571Y-81439286D01*
X160885713Y-81439286D02*
X160885713Y-80939286D01*
X160885713Y-80689286D02*
X160849999Y-80725000D01*
X160885713Y-80760714D01*
X160921428Y-80725000D01*
X160885713Y-80689286D01*
X160885713Y-80760714D01*
X161349999Y-81439286D02*
X161278571Y-81403571D01*
X161242856Y-81367857D01*
X161207142Y-81296429D01*
X161207142Y-81082143D01*
X161242856Y-81010714D01*
X161278571Y-80975000D01*
X161349999Y-80939286D01*
X161457142Y-80939286D01*
X161528571Y-80975000D01*
X161564285Y-81010714D01*
X161599999Y-81082143D01*
X161599999Y-81296429D01*
X161564285Y-81367857D01*
X161528571Y-81403571D01*
X161457142Y-81439286D01*
X161349999Y-81439286D01*
X161921427Y-80939286D02*
X161921427Y-81439286D01*
X161921427Y-81010714D02*
X161957142Y-80975000D01*
X162028570Y-80939286D01*
X162135713Y-80939286D01*
X162207142Y-80975000D01*
X162242856Y-81046429D01*
X162242856Y-81439286D01*
X158135716Y-82751786D02*
X158135716Y-82001786D01*
X158385716Y-82537500D01*
X158635716Y-82001786D01*
X158635716Y-82751786D01*
X158992859Y-82751786D02*
X158992859Y-82001786D01*
X159350002Y-82751786D02*
X159350002Y-82001786D01*
X159778574Y-82751786D01*
X159778574Y-82001786D01*
X160135716Y-82751786D02*
X160135716Y-82001786D01*
D11*
X116750000Y-75250000D02*
X116750000Y-65250000D01*
X116750000Y-65250000D02*
X132500000Y-65250000D01*
D13*
X131650000Y-86500000D02*
X131650000Y-85100000D01*
X131650000Y-85100000D02*
X128850000Y-85100000D01*
X131650000Y-86500000D02*
X128850000Y-86500000D01*
X129300000Y-87070000D02*
X130500000Y-87070000D01*
X130500000Y-88830000D02*
X129300000Y-88830000D01*
D10*
X145200000Y-87150000D02*
X139700000Y-87150000D01*
X139700000Y-87150000D02*
X139700000Y-83650000D01*
X145200000Y-83650000D02*
X139700000Y-83650000D01*
X145200000Y-83650000D02*
X145200000Y-87150000D01*
D13*
X132350000Y-79500000D02*
X132350000Y-80500000D01*
X134050000Y-80500000D02*
X134050000Y-79500000D01*
D14*
X146725000Y-68125000D02*
X146725000Y-68575000D01*
X153975000Y-68125000D02*
X153975000Y-68650000D01*
X153975000Y-75375000D02*
X153975000Y-74850000D01*
X146725000Y-75375000D02*
X146725000Y-74850000D01*
X146725000Y-68125000D02*
X147250000Y-68125000D01*
X146725000Y-75375000D02*
X147250000Y-75375000D01*
X153975000Y-75375000D02*
X153450000Y-75375000D01*
X153975000Y-68125000D02*
X153450000Y-68125000D01*
X146725000Y-68575000D02*
X145350000Y-68575000D01*
D13*
X134600000Y-88800000D02*
X135600000Y-88800000D01*
X135600000Y-87100000D02*
X134600000Y-87100000D01*
X121800000Y-79900000D02*
X121800000Y-78900000D01*
X120100000Y-78900000D02*
X120100000Y-79900000D01*
X126500000Y-70850000D02*
X128500000Y-70850000D01*
X128500000Y-70850000D02*
X128500000Y-66950000D01*
X126500000Y-70850000D02*
X126500000Y-66950000D01*
X120340000Y-73890000D02*
X124160000Y-73890000D01*
X124160000Y-73890000D02*
X124160000Y-72110000D01*
X124160000Y-72110000D02*
X120340000Y-72110000D01*
X120340000Y-73890000D02*
X120340000Y-72110000D01*
D14*
X124525000Y-71170000D02*
X124525000Y-71120000D01*
X120375000Y-71170000D02*
X120375000Y-71025000D01*
X120375000Y-66020000D02*
X120375000Y-66165000D01*
X124525000Y-66020000D02*
X124525000Y-66165000D01*
X124525000Y-71170000D02*
X120375000Y-71170000D01*
X124525000Y-66020000D02*
X120375000Y-66020000D01*
X124525000Y-71120000D02*
X125925000Y-71120000D01*
D13*
X142120000Y-52950000D02*
X142120000Y-51750000D01*
X143880000Y-51750000D02*
X143880000Y-52950000D01*
X137630000Y-61500000D02*
X137630000Y-62700000D01*
X135870000Y-62700000D02*
X135870000Y-61500000D01*
X135700000Y-86680000D02*
X134500000Y-86680000D01*
X134500000Y-84920000D02*
X135700000Y-84920000D01*
X125500000Y-61120000D02*
X126700000Y-61120000D01*
X126700000Y-62880000D02*
X125500000Y-62880000D01*
X125500000Y-59120000D02*
X126700000Y-59120000D01*
X126700000Y-60880000D02*
X125500000Y-60880000D01*
X125500000Y-57120000D02*
X126700000Y-57120000D01*
X126700000Y-58880000D02*
X125500000Y-58880000D01*
X127950000Y-78130000D02*
X126750000Y-78130000D01*
X126750000Y-76370000D02*
X127950000Y-76370000D01*
X127950000Y-75980000D02*
X126750000Y-75980000D01*
X126750000Y-74220000D02*
X127950000Y-74220000D01*
X128870000Y-69150000D02*
X128870000Y-67950000D01*
X130630000Y-67950000D02*
X130630000Y-69150000D01*
X136700000Y-54620000D02*
X140300000Y-54620000D01*
X136661522Y-54608478D02*
G75*
G02X138500000Y-50170000I1838478J1838478D01*
G01*
X140338478Y-54608478D02*
G75*
G03X138500000Y-50170000I-1838478J1838478D01*
G01*
D14*
X147360000Y-84775000D02*
X147410000Y-84775000D01*
X147360000Y-80625000D02*
X147505000Y-80625000D01*
X152510000Y-80625000D02*
X152365000Y-80625000D01*
X152510000Y-84775000D02*
X152365000Y-84775000D01*
X147360000Y-84775000D02*
X147360000Y-80625000D01*
X152510000Y-84775000D02*
X152510000Y-80625000D01*
X147410000Y-84775000D02*
X147410000Y-86175000D01*
D13*
X139000000Y-63660000D02*
X140800000Y-63660000D01*
X140800000Y-60440000D02*
X138350000Y-60440000D01*
D14*
X129177565Y-81707957D02*
X129177565Y-81482957D01*
X125827565Y-81707957D02*
X125827565Y-81407957D01*
X125827565Y-78357957D02*
X125827565Y-78657957D01*
X129177565Y-78357957D02*
X129177565Y-78657957D01*
X129177565Y-81707957D02*
X125827565Y-81707957D01*
X129177565Y-78357957D02*
X125827565Y-78357957D01*
X129177565Y-81482957D02*
X130402565Y-81482957D01*
D15*
X139750000Y-77088000D02*
G75*
G03X142036000Y-74802000I0J2286000D01*
G01*
X137972000Y-68198000D02*
X137972000Y-74802000D01*
X141528000Y-74802000D02*
X141528000Y-68198000D01*
X137972000Y-74802000D02*
G75*
G03X139750000Y-76580000I1778000J0D01*
G01*
X139750000Y-76580000D02*
G75*
G03X141528000Y-74802000I0J1778000D01*
G01*
X139750000Y-66420000D02*
G75*
G03X137972000Y-68198000I0J-1778000D01*
G01*
X141528000Y-68198000D02*
G75*
G03X139750000Y-66420000I-1778000J0D01*
G01*
X137464000Y-74802000D02*
G75*
G03X139750000Y-77088000I2286000J0D01*
G01*
X137464000Y-74802000D02*
X137464000Y-68198000D01*
X142036000Y-68198000D02*
X142036000Y-74802000D01*
X139750000Y-65912000D02*
G75*
G03X137464000Y-68198000I0J-2286000D01*
G01*
X142036000Y-68198000D02*
G75*
G03X139750000Y-65912000I-2286000J0D01*
G01*
D13*
X143850000Y-62500000D02*
X143850000Y-61500000D01*
X142150000Y-61500000D02*
X142150000Y-62500000D01*
X162830000Y-74530000D02*
X162830000Y-66850000D01*
X162830000Y-66850000D02*
X160170000Y-66850000D01*
X160170000Y-66850000D02*
X160170000Y-74530000D01*
X160170000Y-74530000D02*
X162830000Y-74530000D01*
X162830000Y-75800000D02*
X162830000Y-77130000D01*
X162830000Y-77130000D02*
X161500000Y-77130000D01*
D16*
G36*
X149447543Y-60550552D02*
X149469682Y-60604811D01*
X149542549Y-60748389D01*
X149669448Y-60953327D01*
X149783730Y-61119887D01*
X150038339Y-61474284D01*
X149703362Y-61764885D01*
X149511162Y-61944599D01*
X149405451Y-62090552D01*
X149357582Y-62250571D01*
X149345495Y-62362391D01*
X149253336Y-62717057D01*
X149049949Y-63013649D01*
X148760852Y-63228929D01*
X148411559Y-63339658D01*
X148261649Y-63349476D01*
X147936945Y-63347840D01*
X148272083Y-63028095D01*
X148443077Y-62859078D01*
X148563834Y-62728493D01*
X148607222Y-62666631D01*
X148562468Y-62597265D01*
X148448169Y-62460339D01*
X148294274Y-62288359D01*
X148130729Y-62113836D01*
X147987480Y-61969277D01*
X147894477Y-61887190D01*
X147882917Y-61880379D01*
X147805673Y-61911850D01*
X147660425Y-62018029D01*
X147498014Y-62158511D01*
X147306291Y-62318869D01*
X147181700Y-62387676D01*
X147140569Y-62373096D01*
X147132063Y-62177952D01*
X147194635Y-61930673D01*
X147310511Y-61688745D01*
X147383712Y-61586765D01*
X147674457Y-61325437D01*
X148012249Y-61190392D01*
X148293965Y-61163889D01*
X148475853Y-61154293D01*
X148621809Y-61111327D01*
X148774527Y-61013725D01*
X148976706Y-60840220D01*
X149016479Y-60804011D01*
X149216684Y-60623888D01*
X149338600Y-60528927D01*
X149407221Y-60508144D01*
X149447543Y-60550552D01*
X149447543Y-60550552D01*
G37*
X149447543Y-60550552D02*
X149469682Y-60604811D01*
X149542549Y-60748389D01*
X149669448Y-60953327D01*
X149783730Y-61119887D01*
X150038339Y-61474284D01*
X149703362Y-61764885D01*
X149511162Y-61944599D01*
X149405451Y-62090552D01*
X149357582Y-62250571D01*
X149345495Y-62362391D01*
X149253336Y-62717057D01*
X149049949Y-63013649D01*
X148760852Y-63228929D01*
X148411559Y-63339658D01*
X148261649Y-63349476D01*
X147936945Y-63347840D01*
X148272083Y-63028095D01*
X148443077Y-62859078D01*
X148563834Y-62728493D01*
X148607222Y-62666631D01*
X148562468Y-62597265D01*
X148448169Y-62460339D01*
X148294274Y-62288359D01*
X148130729Y-62113836D01*
X147987480Y-61969277D01*
X147894477Y-61887190D01*
X147882917Y-61880379D01*
X147805673Y-61911850D01*
X147660425Y-62018029D01*
X147498014Y-62158511D01*
X147306291Y-62318869D01*
X147181700Y-62387676D01*
X147140569Y-62373096D01*
X147132063Y-62177952D01*
X147194635Y-61930673D01*
X147310511Y-61688745D01*
X147383712Y-61586765D01*
X147674457Y-61325437D01*
X148012249Y-61190392D01*
X148293965Y-61163889D01*
X148475853Y-61154293D01*
X148621809Y-61111327D01*
X148774527Y-61013725D01*
X148976706Y-60840220D01*
X149016479Y-60804011D01*
X149216684Y-60623888D01*
X149338600Y-60528927D01*
X149407221Y-60508144D01*
X149447543Y-60550552D01*
G36*
X153698919Y-60554797D02*
X153846857Y-60679951D01*
X153983521Y-60804011D01*
X154197570Y-60991628D01*
X154355331Y-61099940D01*
X154499499Y-61150215D01*
X154672773Y-61163720D01*
X154706035Y-61163889D01*
X155094131Y-61217930D01*
X155415050Y-61388902D01*
X155616288Y-61586765D01*
X155752343Y-61804116D01*
X155844079Y-62055876D01*
X155873721Y-62284556D01*
X155859431Y-62373096D01*
X155795946Y-62380245D01*
X155654386Y-62289274D01*
X155501986Y-62158511D01*
X155323648Y-62005298D01*
X155183477Y-61905233D01*
X155117083Y-61880379D01*
X155040676Y-61942537D01*
X154906803Y-62075007D01*
X154745412Y-62245280D01*
X154586449Y-62420847D01*
X154459863Y-62569200D01*
X154395600Y-62657830D01*
X154392778Y-62666631D01*
X154439998Y-62732968D01*
X154563503Y-62865832D01*
X154727917Y-63028095D01*
X155063056Y-63347840D01*
X154745556Y-63349212D01*
X154447184Y-63311294D01*
X154208526Y-63216719D01*
X153917644Y-62966903D01*
X153723873Y-62646590D01*
X153653504Y-62348961D01*
X153624097Y-62165707D01*
X153549117Y-62017346D01*
X153400037Y-61857185D01*
X153296638Y-61764885D01*
X152961661Y-61474284D01*
X153216270Y-61119887D01*
X153363472Y-60902527D01*
X153480512Y-60707375D01*
X153530318Y-60604811D01*
X153565645Y-60528213D01*
X153613514Y-60507879D01*
X153698919Y-60554797D01*
X153698919Y-60554797D01*
G37*
X153698919Y-60554797D02*
X153846857Y-60679951D01*
X153983521Y-60804011D01*
X154197570Y-60991628D01*
X154355331Y-61099940D01*
X154499499Y-61150215D01*
X154672773Y-61163720D01*
X154706035Y-61163889D01*
X155094131Y-61217930D01*
X155415050Y-61388902D01*
X155616288Y-61586765D01*
X155752343Y-61804116D01*
X155844079Y-62055876D01*
X155873721Y-62284556D01*
X155859431Y-62373096D01*
X155795946Y-62380245D01*
X155654386Y-62289274D01*
X155501986Y-62158511D01*
X155323648Y-62005298D01*
X155183477Y-61905233D01*
X155117083Y-61880379D01*
X155040676Y-61942537D01*
X154906803Y-62075007D01*
X154745412Y-62245280D01*
X154586449Y-62420847D01*
X154459863Y-62569200D01*
X154395600Y-62657830D01*
X154392778Y-62666631D01*
X154439998Y-62732968D01*
X154563503Y-62865832D01*
X154727917Y-63028095D01*
X155063056Y-63347840D01*
X154745556Y-63349212D01*
X154447184Y-63311294D01*
X154208526Y-63216719D01*
X153917644Y-62966903D01*
X153723873Y-62646590D01*
X153653504Y-62348961D01*
X153624097Y-62165707D01*
X153549117Y-62017346D01*
X153400037Y-61857185D01*
X153296638Y-61764885D01*
X152961661Y-61474284D01*
X153216270Y-61119887D01*
X153363472Y-60902527D01*
X153480512Y-60707375D01*
X153530318Y-60604811D01*
X153565645Y-60528213D01*
X153613514Y-60507879D01*
X153698919Y-60554797D01*
G36*
X151800095Y-57256728D02*
X152019608Y-57289539D01*
X152218592Y-57362332D01*
X152417222Y-57466692D01*
X152837454Y-57779745D01*
X153164459Y-58179086D01*
X153394753Y-58642103D01*
X153524854Y-59146186D01*
X153551276Y-59668724D01*
X153470535Y-60187108D01*
X153279149Y-60678726D01*
X152979314Y-61114538D01*
X152777353Y-61388581D01*
X152700447Y-61611530D01*
X152699445Y-61636855D01*
X152653764Y-61861277D01*
X152512491Y-61982889D01*
X152334182Y-62010556D01*
X152128612Y-61947535D01*
X152020965Y-61831551D01*
X151903676Y-61652546D01*
X151823227Y-61813912D01*
X151691179Y-61941986D01*
X151502369Y-61985351D01*
X151312889Y-61944007D01*
X151178833Y-61817955D01*
X151176773Y-61813912D01*
X151096324Y-61652546D01*
X150979035Y-61831551D01*
X150822449Y-61966501D01*
X150621430Y-62013797D01*
X150433672Y-61964271D01*
X150385222Y-61925889D01*
X150322784Y-61796748D01*
X150300556Y-61636855D01*
X150239475Y-61419986D01*
X150053807Y-61152898D01*
X150020686Y-61114538D01*
X149749671Y-60736722D01*
X151300917Y-60736722D01*
X151310455Y-60789770D01*
X151362679Y-60742563D01*
X151389792Y-60709431D01*
X151477306Y-60614725D01*
X151539958Y-60630814D01*
X151603589Y-60709431D01*
X151680012Y-60799764D01*
X151704561Y-60767517D01*
X151706240Y-60670000D01*
X151677071Y-60472881D01*
X151618653Y-60290712D01*
X151549000Y-60160215D01*
X151489026Y-60148622D01*
X151451760Y-60184878D01*
X151389004Y-60314720D01*
X151334696Y-60513962D01*
X151325551Y-60564167D01*
X151300917Y-60736722D01*
X149749671Y-60736722D01*
X149725148Y-60702536D01*
X149544241Y-60256274D01*
X149468892Y-59747466D01*
X149469342Y-59655563D01*
X150015859Y-59655563D01*
X150078301Y-59903341D01*
X150174337Y-60033731D01*
X150330340Y-60179070D01*
X150416880Y-60013902D01*
X150534413Y-59882134D01*
X150723356Y-59752908D01*
X150791560Y-59718801D01*
X151024051Y-59572017D01*
X151122721Y-59417459D01*
X151116123Y-59284387D01*
X151868227Y-59284387D01*
X151898050Y-59463857D01*
X152062165Y-59634588D01*
X152232380Y-59733695D01*
X152428194Y-59853737D01*
X152564278Y-59983189D01*
X152594315Y-60037218D01*
X152642228Y-60188178D01*
X152811947Y-60028734D01*
X152947117Y-59831638D01*
X152981667Y-59603302D01*
X152924924Y-59306774D01*
X152766710Y-59091294D01*
X152525046Y-58976329D01*
X152388533Y-58962556D01*
X152112132Y-59013542D01*
X151976006Y-59104303D01*
X151868227Y-59284387D01*
X151116123Y-59284387D01*
X151113194Y-59225328D01*
X151000729Y-59078580D01*
X150818865Y-58986728D01*
X150601138Y-58959283D01*
X150381087Y-59005759D01*
X150192251Y-59135668D01*
X150179510Y-59149934D01*
X150049692Y-59387905D01*
X150015859Y-59655563D01*
X149469342Y-59655563D01*
X149470594Y-59400000D01*
X149538200Y-58857726D01*
X149688659Y-58407744D01*
X149933947Y-58020323D01*
X150100624Y-57836043D01*
X150454599Y-57534423D01*
X150813895Y-57349529D01*
X151223281Y-57262605D01*
X151500000Y-57249691D01*
X151800095Y-57256728D01*
X151800095Y-57256728D01*
G37*
X151800095Y-57256728D02*
X152019608Y-57289539D01*
X152218592Y-57362332D01*
X152417222Y-57466692D01*
X152837454Y-57779745D01*
X153164459Y-58179086D01*
X153394753Y-58642103D01*
X153524854Y-59146186D01*
X153551276Y-59668724D01*
X153470535Y-60187108D01*
X153279149Y-60678726D01*
X152979314Y-61114538D01*
X152777353Y-61388581D01*
X152700447Y-61611530D01*
X152699445Y-61636855D01*
X152653764Y-61861277D01*
X152512491Y-61982889D01*
X152334182Y-62010556D01*
X152128612Y-61947535D01*
X152020965Y-61831551D01*
X151903676Y-61652546D01*
X151823227Y-61813912D01*
X151691179Y-61941986D01*
X151502369Y-61985351D01*
X151312889Y-61944007D01*
X151178833Y-61817955D01*
X151176773Y-61813912D01*
X151096324Y-61652546D01*
X150979035Y-61831551D01*
X150822449Y-61966501D01*
X150621430Y-62013797D01*
X150433672Y-61964271D01*
X150385222Y-61925889D01*
X150322784Y-61796748D01*
X150300556Y-61636855D01*
X150239475Y-61419986D01*
X150053807Y-61152898D01*
X150020686Y-61114538D01*
X149749671Y-60736722D01*
X151300917Y-60736722D01*
X151310455Y-60789770D01*
X151362679Y-60742563D01*
X151389792Y-60709431D01*
X151477306Y-60614725D01*
X151539958Y-60630814D01*
X151603589Y-60709431D01*
X151680012Y-60799764D01*
X151704561Y-60767517D01*
X151706240Y-60670000D01*
X151677071Y-60472881D01*
X151618653Y-60290712D01*
X151549000Y-60160215D01*
X151489026Y-60148622D01*
X151451760Y-60184878D01*
X151389004Y-60314720D01*
X151334696Y-60513962D01*
X151325551Y-60564167D01*
X151300917Y-60736722D01*
X149749671Y-60736722D01*
X149725148Y-60702536D01*
X149544241Y-60256274D01*
X149468892Y-59747466D01*
X149469342Y-59655563D01*
X150015859Y-59655563D01*
X150078301Y-59903341D01*
X150174337Y-60033731D01*
X150330340Y-60179070D01*
X150416880Y-60013902D01*
X150534413Y-59882134D01*
X150723356Y-59752908D01*
X150791560Y-59718801D01*
X151024051Y-59572017D01*
X151122721Y-59417459D01*
X151116123Y-59284387D01*
X151868227Y-59284387D01*
X151898050Y-59463857D01*
X152062165Y-59634588D01*
X152232380Y-59733695D01*
X152428194Y-59853737D01*
X152564278Y-59983189D01*
X152594315Y-60037218D01*
X152642228Y-60188178D01*
X152811947Y-60028734D01*
X152947117Y-59831638D01*
X152981667Y-59603302D01*
X152924924Y-59306774D01*
X152766710Y-59091294D01*
X152525046Y-58976329D01*
X152388533Y-58962556D01*
X152112132Y-59013542D01*
X151976006Y-59104303D01*
X151868227Y-59284387D01*
X151116123Y-59284387D01*
X151113194Y-59225328D01*
X151000729Y-59078580D01*
X150818865Y-58986728D01*
X150601138Y-58959283D01*
X150381087Y-59005759D01*
X150192251Y-59135668D01*
X150179510Y-59149934D01*
X150049692Y-59387905D01*
X150015859Y-59655563D01*
X149469342Y-59655563D01*
X149470594Y-59400000D01*
X149538200Y-58857726D01*
X149688659Y-58407744D01*
X149933947Y-58020323D01*
X150100624Y-57836043D01*
X150454599Y-57534423D01*
X150813895Y-57349529D01*
X151223281Y-57262605D01*
X151500000Y-57249691D01*
X151800095Y-57256728D01*
G36*
X148619666Y-55513671D02*
X148943072Y-55694990D01*
X149189420Y-55975546D01*
X149337602Y-56336587D01*
X149357702Y-56443079D01*
X149397099Y-56621340D01*
X149473050Y-56769684D01*
X149612318Y-56927311D01*
X149810948Y-57106945D01*
X150218891Y-57459722D01*
X149950464Y-57741945D01*
X149782392Y-57931889D01*
X149647718Y-58107313D01*
X149600758Y-58182917D01*
X149521717Y-58302244D01*
X149469045Y-58339421D01*
X149395623Y-58294379D01*
X149248462Y-58177585D01*
X149057523Y-58012990D01*
X149030556Y-57988889D01*
X148818568Y-57806357D01*
X148661284Y-57701471D01*
X148512941Y-57652786D01*
X148327777Y-57638858D01*
X148282517Y-57638357D01*
X147884536Y-57570417D01*
X147542612Y-57373479D01*
X147320904Y-57136114D01*
X147245112Y-56991683D01*
X147180984Y-56799451D01*
X147137638Y-56602611D01*
X147124190Y-56444354D01*
X147149760Y-56367875D01*
X147158356Y-56366111D01*
X147234625Y-56409326D01*
X147380785Y-56521588D01*
X147531987Y-56649769D01*
X147854239Y-56933426D01*
X148026085Y-56773241D01*
X148176996Y-56617670D01*
X148353224Y-56415932D01*
X148416778Y-56338028D01*
X148635624Y-56063000D01*
X148286284Y-55757396D01*
X147936945Y-55451791D01*
X148240309Y-55450340D01*
X148619666Y-55513671D01*
X148619666Y-55513671D01*
G37*
X148619666Y-55513671D02*
X148943072Y-55694990D01*
X149189420Y-55975546D01*
X149337602Y-56336587D01*
X149357702Y-56443079D01*
X149397099Y-56621340D01*
X149473050Y-56769684D01*
X149612318Y-56927311D01*
X149810948Y-57106945D01*
X150218891Y-57459722D01*
X149950464Y-57741945D01*
X149782392Y-57931889D01*
X149647718Y-58107313D01*
X149600758Y-58182917D01*
X149521717Y-58302244D01*
X149469045Y-58339421D01*
X149395623Y-58294379D01*
X149248462Y-58177585D01*
X149057523Y-58012990D01*
X149030556Y-57988889D01*
X148818568Y-57806357D01*
X148661284Y-57701471D01*
X148512941Y-57652786D01*
X148327777Y-57638858D01*
X148282517Y-57638357D01*
X147884536Y-57570417D01*
X147542612Y-57373479D01*
X147320904Y-57136114D01*
X147245112Y-56991683D01*
X147180984Y-56799451D01*
X147137638Y-56602611D01*
X147124190Y-56444354D01*
X147149760Y-56367875D01*
X147158356Y-56366111D01*
X147234625Y-56409326D01*
X147380785Y-56521588D01*
X147531987Y-56649769D01*
X147854239Y-56933426D01*
X148026085Y-56773241D01*
X148176996Y-56617670D01*
X148353224Y-56415932D01*
X148416778Y-56338028D01*
X148635624Y-56063000D01*
X148286284Y-55757396D01*
X147936945Y-55451791D01*
X148240309Y-55450340D01*
X148619666Y-55513671D01*
G36*
X155063056Y-55451791D02*
X154713716Y-55757396D01*
X154364376Y-56063000D01*
X154583222Y-56338028D01*
X154752991Y-56539679D01*
X154921053Y-56721462D01*
X154973915Y-56773241D01*
X155145761Y-56933426D01*
X155468013Y-56649769D01*
X155646282Y-56499739D01*
X155783425Y-56396921D01*
X155841645Y-56366111D01*
X155874524Y-56424958D01*
X155866882Y-56572705D01*
X155827838Y-56766157D01*
X155766509Y-56962123D01*
X155692013Y-57117409D01*
X155679097Y-57136114D01*
X155384496Y-57429462D01*
X155032525Y-57596630D01*
X154729551Y-57636111D01*
X154538737Y-57644966D01*
X154387792Y-57685300D01*
X154232598Y-57777767D01*
X154029039Y-57943023D01*
X153976039Y-57988889D01*
X153776790Y-58157409D01*
X153618861Y-58282122D01*
X153531547Y-58340090D01*
X153525481Y-58341667D01*
X153463195Y-58286448D01*
X153399242Y-58182917D01*
X153304222Y-58041602D01*
X153150385Y-57854336D01*
X153047437Y-57741945D01*
X152776909Y-57459722D01*
X153189258Y-57109554D01*
X153407416Y-56914942D01*
X153538339Y-56764913D01*
X153608635Y-56620673D01*
X153644603Y-56445688D01*
X153760131Y-56067159D01*
X153980311Y-55763253D01*
X154283942Y-55552897D01*
X154649819Y-55455017D01*
X154759691Y-55450340D01*
X155063056Y-55451791D01*
X155063056Y-55451791D01*
G37*
X155063056Y-55451791D02*
X154713716Y-55757396D01*
X154364376Y-56063000D01*
X154583222Y-56338028D01*
X154752991Y-56539679D01*
X154921053Y-56721462D01*
X154973915Y-56773241D01*
X155145761Y-56933426D01*
X155468013Y-56649769D01*
X155646282Y-56499739D01*
X155783425Y-56396921D01*
X155841645Y-56366111D01*
X155874524Y-56424958D01*
X155866882Y-56572705D01*
X155827838Y-56766157D01*
X155766509Y-56962123D01*
X155692013Y-57117409D01*
X155679097Y-57136114D01*
X155384496Y-57429462D01*
X155032525Y-57596630D01*
X154729551Y-57636111D01*
X154538737Y-57644966D01*
X154387792Y-57685300D01*
X154232598Y-57777767D01*
X154029039Y-57943023D01*
X153976039Y-57988889D01*
X153776790Y-58157409D01*
X153618861Y-58282122D01*
X153531547Y-58340090D01*
X153525481Y-58341667D01*
X153463195Y-58286448D01*
X153399242Y-58182917D01*
X153304222Y-58041602D01*
X153150385Y-57854336D01*
X153047437Y-57741945D01*
X152776909Y-57459722D01*
X153189258Y-57109554D01*
X153407416Y-56914942D01*
X153538339Y-56764913D01*
X153608635Y-56620673D01*
X153644603Y-56445688D01*
X153760131Y-56067159D01*
X153980311Y-55763253D01*
X154283942Y-55552897D01*
X154649819Y-55455017D01*
X154759691Y-55450340D01*
X155063056Y-55451791D01*
D13*
X120600000Y-64110000D02*
X120600000Y-63730000D01*
X116550000Y-64110000D02*
X116290000Y-64110000D01*
X120600000Y-64110000D02*
X118830000Y-64110000D01*
X120600000Y-56490000D02*
X120600000Y-56870000D01*
X118830000Y-56490000D02*
X120600000Y-56490000D01*
X116290000Y-56490000D02*
X116550000Y-56490000D01*
X136980000Y-58080000D02*
X144660000Y-58080000D01*
X144660000Y-58080000D02*
X144660000Y-55420000D01*
X144660000Y-55420000D02*
X136980000Y-55420000D01*
X136980000Y-55420000D02*
X136980000Y-58080000D01*
X135710000Y-58080000D02*
X134380000Y-58080000D01*
X134380000Y-58080000D02*
X134380000Y-56750000D01*
D14*
X128373809Y-84654762D02*
X128516666Y-84702381D01*
X128754762Y-84702381D01*
X128850000Y-84654762D01*
X128897619Y-84607143D01*
X128945238Y-84511905D01*
X128945238Y-84416667D01*
X128897619Y-84321429D01*
X128850000Y-84273810D01*
X128754762Y-84226190D01*
X128564285Y-84178571D01*
X128469047Y-84130952D01*
X128421428Y-84083333D01*
X128373809Y-83988095D01*
X128373809Y-83892857D01*
X128421428Y-83797619D01*
X128469047Y-83750000D01*
X128564285Y-83702381D01*
X128802381Y-83702381D01*
X128945238Y-83750000D01*
X129230952Y-83702381D02*
X129802381Y-83702381D01*
X129516666Y-84702381D02*
X129516666Y-83702381D01*
X130088095Y-84416667D02*
X130564286Y-84416667D01*
X129992857Y-84702381D02*
X130326190Y-83702381D01*
X130659524Y-84702381D01*
X130850000Y-83702381D02*
X131421429Y-83702381D01*
X131135714Y-84702381D02*
X131135714Y-83702381D01*
X126233334Y-88452381D02*
X125900000Y-87976190D01*
X125661905Y-88452381D02*
X125661905Y-87452381D01*
X126042858Y-87452381D01*
X126138096Y-87500000D01*
X126185715Y-87547619D01*
X126233334Y-87642857D01*
X126233334Y-87785714D01*
X126185715Y-87880952D01*
X126138096Y-87928571D01*
X126042858Y-87976190D01*
X125661905Y-87976190D01*
X127090477Y-87452381D02*
X126900000Y-87452381D01*
X126804762Y-87500000D01*
X126757143Y-87547619D01*
X126661905Y-87690476D01*
X126614286Y-87880952D01*
X126614286Y-88261905D01*
X126661905Y-88357143D01*
X126709524Y-88404762D01*
X126804762Y-88452381D01*
X126995239Y-88452381D01*
X127090477Y-88404762D01*
X127138096Y-88357143D01*
X127185715Y-88261905D01*
X127185715Y-88023810D01*
X127138096Y-87928571D01*
X127090477Y-87880952D01*
X126995239Y-87833333D01*
X126804762Y-87833333D01*
X126709524Y-87880952D01*
X126661905Y-87928571D01*
X126614286Y-88023810D01*
X141116667Y-85804762D02*
X141259524Y-85852381D01*
X141497620Y-85852381D01*
X141592858Y-85804762D01*
X141640477Y-85757143D01*
X141688096Y-85661905D01*
X141688096Y-85566667D01*
X141640477Y-85471429D01*
X141592858Y-85423810D01*
X141497620Y-85376190D01*
X141307143Y-85328571D01*
X141211905Y-85280952D01*
X141164286Y-85233333D01*
X141116667Y-85138095D01*
X141116667Y-85042857D01*
X141164286Y-84947619D01*
X141211905Y-84900000D01*
X141307143Y-84852381D01*
X141545239Y-84852381D01*
X141688096Y-84900000D01*
X142021429Y-84852381D02*
X142259524Y-85852381D01*
X142450001Y-85138095D01*
X142640477Y-85852381D01*
X142878572Y-84852381D01*
X143735715Y-84852381D02*
X143259524Y-84852381D01*
X143211905Y-85328571D01*
X143259524Y-85280952D01*
X143354762Y-85233333D01*
X143592858Y-85233333D01*
X143688096Y-85280952D01*
X143735715Y-85328571D01*
X143783334Y-85423810D01*
X143783334Y-85661905D01*
X143735715Y-85757143D01*
X143688096Y-85804762D01*
X143592858Y-85852381D01*
X143354762Y-85852381D01*
X143259524Y-85804762D01*
X143211905Y-85757143D01*
X141097619Y-83302381D02*
X140764285Y-82826190D01*
X140526190Y-83302381D02*
X140526190Y-82302381D01*
X140907143Y-82302381D01*
X141002381Y-82350000D01*
X141050000Y-82397619D01*
X141097619Y-82492857D01*
X141097619Y-82635714D01*
X141050000Y-82730952D01*
X141002381Y-82778571D01*
X140907143Y-82826190D01*
X140526190Y-82826190D01*
X141526190Y-82778571D02*
X141859524Y-82778571D01*
X142002381Y-83302381D02*
X141526190Y-83302381D01*
X141526190Y-82302381D01*
X142002381Y-82302381D01*
X142383333Y-83254762D02*
X142526190Y-83302381D01*
X142764286Y-83302381D01*
X142859524Y-83254762D01*
X142907143Y-83207143D01*
X142954762Y-83111905D01*
X142954762Y-83016667D01*
X142907143Y-82921429D01*
X142859524Y-82873810D01*
X142764286Y-82826190D01*
X142573809Y-82778571D01*
X142478571Y-82730952D01*
X142430952Y-82683333D01*
X142383333Y-82588095D01*
X142383333Y-82492857D01*
X142430952Y-82397619D01*
X142478571Y-82350000D01*
X142573809Y-82302381D01*
X142811905Y-82302381D01*
X142954762Y-82350000D01*
X143383333Y-82778571D02*
X143716667Y-82778571D01*
X143859524Y-83302381D02*
X143383333Y-83302381D01*
X143383333Y-82302381D01*
X143859524Y-82302381D01*
X144145238Y-82302381D02*
X144716667Y-82302381D01*
X144430952Y-83302381D02*
X144430952Y-82302381D01*
X135307143Y-80642857D02*
X135354762Y-80690476D01*
X135402381Y-80833333D01*
X135402381Y-80928571D01*
X135354762Y-81071429D01*
X135259524Y-81166667D01*
X135164286Y-81214286D01*
X134973810Y-81261905D01*
X134830952Y-81261905D01*
X134640476Y-81214286D01*
X134545238Y-81166667D01*
X134450000Y-81071429D01*
X134402381Y-80928571D01*
X134402381Y-80833333D01*
X134450000Y-80690476D01*
X134497619Y-80642857D01*
X135402381Y-79690476D02*
X135402381Y-80261905D01*
X135402381Y-79976191D02*
X134402381Y-79976191D01*
X134545238Y-80071429D01*
X134640476Y-80166667D01*
X134688095Y-80261905D01*
X134402381Y-79071429D02*
X134402381Y-78976190D01*
X134450000Y-78880952D01*
X134497619Y-78833333D01*
X134592857Y-78785714D01*
X134783333Y-78738095D01*
X135021429Y-78738095D01*
X135211905Y-78785714D01*
X135307143Y-78833333D01*
X135354762Y-78880952D01*
X135402381Y-78976190D01*
X135402381Y-79071429D01*
X135354762Y-79166667D01*
X135307143Y-79214286D01*
X135211905Y-79261905D01*
X135021429Y-79309524D01*
X134783333Y-79309524D01*
X134592857Y-79261905D01*
X134497619Y-79214286D01*
X134450000Y-79166667D01*
X134402381Y-79071429D01*
X150438095Y-65052381D02*
X150438095Y-65861905D01*
X150485714Y-65957143D01*
X150533333Y-66004762D01*
X150628571Y-66052381D01*
X150819048Y-66052381D01*
X150914286Y-66004762D01*
X150961905Y-65957143D01*
X151009524Y-65861905D01*
X151009524Y-65052381D01*
X151914286Y-65385714D02*
X151914286Y-66052381D01*
X151676190Y-65004762D02*
X151438095Y-65719048D01*
X152057143Y-65719048D01*
X138483334Y-88407143D02*
X138435715Y-88454762D01*
X138292858Y-88502381D01*
X138197620Y-88502381D01*
X138054762Y-88454762D01*
X137959524Y-88359524D01*
X137911905Y-88264286D01*
X137864286Y-88073810D01*
X137864286Y-87930952D01*
X137911905Y-87740476D01*
X137959524Y-87645238D01*
X138054762Y-87550000D01*
X138197620Y-87502381D01*
X138292858Y-87502381D01*
X138435715Y-87550000D01*
X138483334Y-87597619D01*
X138959524Y-88502381D02*
X139150000Y-88502381D01*
X139245239Y-88454762D01*
X139292858Y-88407143D01*
X139388096Y-88264286D01*
X139435715Y-88073810D01*
X139435715Y-87692857D01*
X139388096Y-87597619D01*
X139340477Y-87550000D01*
X139245239Y-87502381D01*
X139054762Y-87502381D01*
X138959524Y-87550000D01*
X138911905Y-87597619D01*
X138864286Y-87692857D01*
X138864286Y-87930952D01*
X138911905Y-88026190D01*
X138959524Y-88073810D01*
X139054762Y-88121429D01*
X139245239Y-88121429D01*
X139340477Y-88073810D01*
X139388096Y-88026190D01*
X139435715Y-87930952D01*
X120307143Y-82807143D02*
X120259524Y-82854762D01*
X120116667Y-82902381D01*
X120021429Y-82902381D01*
X119878571Y-82854762D01*
X119783333Y-82759524D01*
X119735714Y-82664286D01*
X119688095Y-82473810D01*
X119688095Y-82330952D01*
X119735714Y-82140476D01*
X119783333Y-82045238D01*
X119878571Y-81950000D01*
X120021429Y-81902381D01*
X120116667Y-81902381D01*
X120259524Y-81950000D01*
X120307143Y-81997619D01*
X121259524Y-82902381D02*
X120688095Y-82902381D01*
X120973809Y-82902381D02*
X120973809Y-81902381D01*
X120878571Y-82045238D01*
X120783333Y-82140476D01*
X120688095Y-82188095D01*
X122211905Y-82902381D02*
X121640476Y-82902381D01*
X121926190Y-82902381D02*
X121926190Y-81902381D01*
X121830952Y-82045238D01*
X121735714Y-82140476D01*
X121640476Y-82188095D01*
X126761905Y-72202381D02*
X126761905Y-71202381D01*
X127000000Y-71202381D01*
X127142858Y-71250000D01*
X127238096Y-71345238D01*
X127285715Y-71440476D01*
X127333334Y-71630952D01*
X127333334Y-71773810D01*
X127285715Y-71964286D01*
X127238096Y-72059524D01*
X127142858Y-72154762D01*
X127000000Y-72202381D01*
X126761905Y-72202381D01*
X127666667Y-71202381D02*
X128285715Y-71202381D01*
X127952381Y-71583333D01*
X128095239Y-71583333D01*
X128190477Y-71630952D01*
X128238096Y-71678571D01*
X128285715Y-71773810D01*
X128285715Y-72011905D01*
X128238096Y-72107143D01*
X128190477Y-72154762D01*
X128095239Y-72202381D01*
X127809524Y-72202381D01*
X127714286Y-72154762D01*
X127666667Y-72107143D01*
X118666667Y-73152381D02*
X118666667Y-73866667D01*
X118619047Y-74009524D01*
X118523809Y-74104762D01*
X118380952Y-74152381D01*
X118285714Y-74152381D01*
X119285714Y-73580952D02*
X119190476Y-73533333D01*
X119142857Y-73485714D01*
X119095238Y-73390476D01*
X119095238Y-73342857D01*
X119142857Y-73247619D01*
X119190476Y-73200000D01*
X119285714Y-73152381D01*
X119476191Y-73152381D01*
X119571429Y-73200000D01*
X119619048Y-73247619D01*
X119666667Y-73342857D01*
X119666667Y-73390476D01*
X119619048Y-73485714D01*
X119571429Y-73533333D01*
X119476191Y-73580952D01*
X119285714Y-73580952D01*
X119190476Y-73628571D01*
X119142857Y-73676190D01*
X119095238Y-73771429D01*
X119095238Y-73961905D01*
X119142857Y-74057143D01*
X119190476Y-74104762D01*
X119285714Y-74152381D01*
X119476191Y-74152381D01*
X119571429Y-74104762D01*
X119619048Y-74057143D01*
X119666667Y-73961905D01*
X119666667Y-73771429D01*
X119619048Y-73676190D01*
X119571429Y-73628571D01*
X119476191Y-73580952D01*
D17*
X123054762Y-74350000D02*
X123007143Y-74326190D01*
X122935715Y-74326190D01*
X122864286Y-74350000D01*
X122816667Y-74397619D01*
X122792858Y-74445238D01*
X122769048Y-74540476D01*
X122769048Y-74611905D01*
X122792858Y-74707143D01*
X122816667Y-74754762D01*
X122864286Y-74802381D01*
X122935715Y-74826190D01*
X122983334Y-74826190D01*
X123054762Y-74802381D01*
X123078572Y-74778571D01*
X123078572Y-74611905D01*
X122983334Y-74611905D01*
X123269048Y-74802381D02*
X123340477Y-74826190D01*
X123459524Y-74826190D01*
X123507143Y-74802381D01*
X123530953Y-74778571D01*
X123554762Y-74730952D01*
X123554762Y-74683333D01*
X123530953Y-74635714D01*
X123507143Y-74611905D01*
X123459524Y-74588095D01*
X123364286Y-74564286D01*
X123316667Y-74540476D01*
X123292858Y-74516667D01*
X123269048Y-74469048D01*
X123269048Y-74421429D01*
X123292858Y-74373810D01*
X123316667Y-74350000D01*
X123364286Y-74326190D01*
X123483334Y-74326190D01*
X123554762Y-74350000D01*
X123721429Y-74326190D02*
X124030952Y-74326190D01*
X123864286Y-74516667D01*
X123935714Y-74516667D01*
X123983333Y-74540476D01*
X124007143Y-74564286D01*
X124030952Y-74611905D01*
X124030952Y-74730952D01*
X124007143Y-74778571D01*
X123983333Y-74802381D01*
X123935714Y-74826190D01*
X123792857Y-74826190D01*
X123745238Y-74802381D01*
X123721429Y-74778571D01*
D14*
X118297619Y-68500238D02*
X118250000Y-68595476D01*
X118154762Y-68690714D01*
X118011905Y-68833571D01*
X117964286Y-68928810D01*
X117964286Y-69024048D01*
X118202381Y-68976429D02*
X118154762Y-69071667D01*
X118059524Y-69166905D01*
X117869048Y-69214524D01*
X117535714Y-69214524D01*
X117345238Y-69166905D01*
X117250000Y-69071667D01*
X117202381Y-68976429D01*
X117202381Y-68785952D01*
X117250000Y-68690714D01*
X117345238Y-68595476D01*
X117535714Y-68547857D01*
X117869048Y-68547857D01*
X118059524Y-68595476D01*
X118154762Y-68690714D01*
X118202381Y-68785952D01*
X118202381Y-68976429D01*
X118202381Y-67595476D02*
X118202381Y-68166905D01*
X118202381Y-67881191D02*
X117202381Y-67881191D01*
X117345238Y-67976429D01*
X117440476Y-68071667D01*
X117488095Y-68166905D01*
X145152381Y-52516666D02*
X144676190Y-52850000D01*
X145152381Y-53088095D02*
X144152381Y-53088095D01*
X144152381Y-52707142D01*
X144200000Y-52611904D01*
X144247619Y-52564285D01*
X144342857Y-52516666D01*
X144485714Y-52516666D01*
X144580952Y-52564285D01*
X144628571Y-52611904D01*
X144676190Y-52707142D01*
X144676190Y-53088095D01*
X144485714Y-51659523D02*
X145152381Y-51659523D01*
X144104762Y-51897619D02*
X144819048Y-52135714D01*
X144819048Y-51516666D01*
X135502381Y-62266666D02*
X135026190Y-62600000D01*
X135502381Y-62838095D02*
X134502381Y-62838095D01*
X134502381Y-62457142D01*
X134550000Y-62361904D01*
X134597619Y-62314285D01*
X134692857Y-62266666D01*
X134835714Y-62266666D01*
X134930952Y-62314285D01*
X134978571Y-62361904D01*
X135026190Y-62457142D01*
X135026190Y-62838095D01*
X135502381Y-61790476D02*
X135502381Y-61600000D01*
X135454762Y-61504761D01*
X135407143Y-61457142D01*
X135264286Y-61361904D01*
X135073810Y-61314285D01*
X134692857Y-61314285D01*
X134597619Y-61361904D01*
X134550000Y-61409523D01*
X134502381Y-61504761D01*
X134502381Y-61695238D01*
X134550000Y-61790476D01*
X134597619Y-61838095D01*
X134692857Y-61885714D01*
X134930952Y-61885714D01*
X135026190Y-61838095D01*
X135073810Y-61790476D01*
X135121429Y-61695238D01*
X135121429Y-61504761D01*
X135073810Y-61409523D01*
X135026190Y-61361904D01*
X134930952Y-61314285D01*
X133257143Y-84502381D02*
X132923809Y-84026190D01*
X132685714Y-84502381D02*
X132685714Y-83502381D01*
X133066667Y-83502381D01*
X133161905Y-83550000D01*
X133209524Y-83597619D01*
X133257143Y-83692857D01*
X133257143Y-83835714D01*
X133209524Y-83930952D01*
X133161905Y-83978571D01*
X133066667Y-84026190D01*
X132685714Y-84026190D01*
X134209524Y-84502381D02*
X133638095Y-84502381D01*
X133923809Y-84502381D02*
X133923809Y-83502381D01*
X133828571Y-83645238D01*
X133733333Y-83740476D01*
X133638095Y-83788095D01*
X134590476Y-83597619D02*
X134638095Y-83550000D01*
X134733333Y-83502381D01*
X134971429Y-83502381D01*
X135066667Y-83550000D01*
X135114286Y-83597619D01*
X135161905Y-83692857D01*
X135161905Y-83788095D01*
X135114286Y-83930952D01*
X134542857Y-84502381D01*
X135161905Y-84502381D01*
X130357143Y-62452381D02*
X130023809Y-61976190D01*
X129785714Y-62452381D02*
X129785714Y-61452381D01*
X130166667Y-61452381D01*
X130261905Y-61500000D01*
X130309524Y-61547619D01*
X130357143Y-61642857D01*
X130357143Y-61785714D01*
X130309524Y-61880952D01*
X130261905Y-61928571D01*
X130166667Y-61976190D01*
X129785714Y-61976190D01*
X131309524Y-62452381D02*
X130738095Y-62452381D01*
X131023809Y-62452381D02*
X131023809Y-61452381D01*
X130928571Y-61595238D01*
X130833333Y-61690476D01*
X130738095Y-61738095D01*
X131642857Y-61452381D02*
X132261905Y-61452381D01*
X131928571Y-61833333D01*
X132071429Y-61833333D01*
X132166667Y-61880952D01*
X132214286Y-61928571D01*
X132261905Y-62023810D01*
X132261905Y-62261905D01*
X132214286Y-62357143D01*
X132166667Y-62404762D01*
X132071429Y-62452381D01*
X131785714Y-62452381D01*
X131690476Y-62404762D01*
X131642857Y-62357143D01*
X130357143Y-60452381D02*
X130023809Y-59976190D01*
X129785714Y-60452381D02*
X129785714Y-59452381D01*
X130166667Y-59452381D01*
X130261905Y-59500000D01*
X130309524Y-59547619D01*
X130357143Y-59642857D01*
X130357143Y-59785714D01*
X130309524Y-59880952D01*
X130261905Y-59928571D01*
X130166667Y-59976190D01*
X129785714Y-59976190D01*
X131309524Y-60452381D02*
X130738095Y-60452381D01*
X131023809Y-60452381D02*
X131023809Y-59452381D01*
X130928571Y-59595238D01*
X130833333Y-59690476D01*
X130738095Y-59738095D01*
X132166667Y-59785714D02*
X132166667Y-60452381D01*
X131928571Y-59404762D02*
X131690476Y-60119048D01*
X132309524Y-60119048D01*
X130357143Y-58452381D02*
X130023809Y-57976190D01*
X129785714Y-58452381D02*
X129785714Y-57452381D01*
X130166667Y-57452381D01*
X130261905Y-57500000D01*
X130309524Y-57547619D01*
X130357143Y-57642857D01*
X130357143Y-57785714D01*
X130309524Y-57880952D01*
X130261905Y-57928571D01*
X130166667Y-57976190D01*
X129785714Y-57976190D01*
X131309524Y-58452381D02*
X130738095Y-58452381D01*
X131023809Y-58452381D02*
X131023809Y-57452381D01*
X130928571Y-57595238D01*
X130833333Y-57690476D01*
X130738095Y-57738095D01*
X132214286Y-57452381D02*
X131738095Y-57452381D01*
X131690476Y-57928571D01*
X131738095Y-57880952D01*
X131833333Y-57833333D01*
X132071429Y-57833333D01*
X132166667Y-57880952D01*
X132214286Y-57928571D01*
X132261905Y-58023810D01*
X132261905Y-58261905D01*
X132214286Y-58357143D01*
X132166667Y-58404762D01*
X132071429Y-58452381D01*
X131833333Y-58452381D01*
X131738095Y-58404762D01*
X131690476Y-58357143D01*
X130857143Y-77202381D02*
X130523809Y-76726190D01*
X130285714Y-77202381D02*
X130285714Y-76202381D01*
X130666667Y-76202381D01*
X130761905Y-76250000D01*
X130809524Y-76297619D01*
X130857143Y-76392857D01*
X130857143Y-76535714D01*
X130809524Y-76630952D01*
X130761905Y-76678571D01*
X130666667Y-76726190D01*
X130285714Y-76726190D01*
X131809524Y-77202381D02*
X131238095Y-77202381D01*
X131523809Y-77202381D02*
X131523809Y-76202381D01*
X131428571Y-76345238D01*
X131333333Y-76440476D01*
X131238095Y-76488095D01*
X132666667Y-76202381D02*
X132476190Y-76202381D01*
X132380952Y-76250000D01*
X132333333Y-76297619D01*
X132238095Y-76440476D01*
X132190476Y-76630952D01*
X132190476Y-77011905D01*
X132238095Y-77107143D01*
X132285714Y-77154762D01*
X132380952Y-77202381D01*
X132571429Y-77202381D01*
X132666667Y-77154762D01*
X132714286Y-77107143D01*
X132761905Y-77011905D01*
X132761905Y-76773810D01*
X132714286Y-76678571D01*
X132666667Y-76630952D01*
X132571429Y-76583333D01*
X132380952Y-76583333D01*
X132285714Y-76630952D01*
X132238095Y-76678571D01*
X132190476Y-76773810D01*
X126357143Y-73952381D02*
X126023809Y-73476190D01*
X125785714Y-73952381D02*
X125785714Y-72952381D01*
X126166667Y-72952381D01*
X126261905Y-73000000D01*
X126309524Y-73047619D01*
X126357143Y-73142857D01*
X126357143Y-73285714D01*
X126309524Y-73380952D01*
X126261905Y-73428571D01*
X126166667Y-73476190D01*
X125785714Y-73476190D01*
X127309524Y-73952381D02*
X126738095Y-73952381D01*
X127023809Y-73952381D02*
X127023809Y-72952381D01*
X126928571Y-73095238D01*
X126833333Y-73190476D01*
X126738095Y-73238095D01*
X127642857Y-72952381D02*
X128309524Y-72952381D01*
X127880952Y-73952381D01*
X131902381Y-69192857D02*
X131426190Y-69526191D01*
X131902381Y-69764286D02*
X130902381Y-69764286D01*
X130902381Y-69383333D01*
X130950000Y-69288095D01*
X130997619Y-69240476D01*
X131092857Y-69192857D01*
X131235714Y-69192857D01*
X131330952Y-69240476D01*
X131378571Y-69288095D01*
X131426190Y-69383333D01*
X131426190Y-69764286D01*
X131902381Y-68240476D02*
X131902381Y-68811905D01*
X131902381Y-68526191D02*
X130902381Y-68526191D01*
X131045238Y-68621429D01*
X131140476Y-68716667D01*
X131188095Y-68811905D01*
X131902381Y-67764286D02*
X131902381Y-67573810D01*
X131854762Y-67478571D01*
X131807143Y-67430952D01*
X131664286Y-67335714D01*
X131473810Y-67288095D01*
X131092857Y-67288095D01*
X130997619Y-67335714D01*
X130950000Y-67383333D01*
X130902381Y-67478571D01*
X130902381Y-67669048D01*
X130950000Y-67764286D01*
X130997619Y-67811905D01*
X131092857Y-67859524D01*
X131330952Y-67859524D01*
X131426190Y-67811905D01*
X131473810Y-67764286D01*
X131521429Y-67669048D01*
X131521429Y-67478571D01*
X131473810Y-67383333D01*
X131426190Y-67335714D01*
X131330952Y-67288095D01*
X134438095Y-50152381D02*
X134438095Y-50961905D01*
X134485714Y-51057143D01*
X134533333Y-51104762D01*
X134628571Y-51152381D01*
X134819048Y-51152381D01*
X134914286Y-51104762D01*
X134961905Y-51057143D01*
X135009524Y-50961905D01*
X135009524Y-50152381D01*
X136009524Y-51152381D02*
X135438095Y-51152381D01*
X135723809Y-51152381D02*
X135723809Y-50152381D01*
X135628571Y-50295238D01*
X135533333Y-50390476D01*
X135438095Y-50438095D01*
X148828095Y-87352381D02*
X148828095Y-88161905D01*
X148875714Y-88257143D01*
X148923333Y-88304762D01*
X149018571Y-88352381D01*
X149209048Y-88352381D01*
X149304286Y-88304762D01*
X149351905Y-88257143D01*
X149399524Y-88161905D01*
X149399524Y-87352381D01*
X149828095Y-87447619D02*
X149875714Y-87400000D01*
X149970952Y-87352381D01*
X150209048Y-87352381D01*
X150304286Y-87400000D01*
X150351905Y-87447619D01*
X150399524Y-87542857D01*
X150399524Y-87638095D01*
X150351905Y-87780952D01*
X149780476Y-88352381D01*
X150399524Y-88352381D01*
X139138095Y-58952381D02*
X139138095Y-59761905D01*
X139185714Y-59857143D01*
X139233333Y-59904762D01*
X139328571Y-59952381D01*
X139519048Y-59952381D01*
X139614286Y-59904762D01*
X139661905Y-59857143D01*
X139709524Y-59761905D01*
X139709524Y-58952381D01*
X140090476Y-58952381D02*
X140709524Y-58952381D01*
X140376190Y-59333333D01*
X140519048Y-59333333D01*
X140614286Y-59380952D01*
X140661905Y-59428571D01*
X140709524Y-59523810D01*
X140709524Y-59761905D01*
X140661905Y-59857143D01*
X140614286Y-59904762D01*
X140519048Y-59952381D01*
X140233333Y-59952381D01*
X140138095Y-59904762D01*
X140090476Y-59857143D01*
X126738095Y-82052381D02*
X126738095Y-82861905D01*
X126785714Y-82957143D01*
X126833333Y-83004762D01*
X126928571Y-83052381D01*
X127119048Y-83052381D01*
X127214286Y-83004762D01*
X127261905Y-82957143D01*
X127309524Y-82861905D01*
X127309524Y-82052381D01*
X128261905Y-82052381D02*
X127785714Y-82052381D01*
X127738095Y-82528571D01*
X127785714Y-82480952D01*
X127880952Y-82433333D01*
X128119048Y-82433333D01*
X128214286Y-82480952D01*
X128261905Y-82528571D01*
X128309524Y-82623810D01*
X128309524Y-82861905D01*
X128261905Y-82957143D01*
X128214286Y-83004762D01*
X128119048Y-83052381D01*
X127880952Y-83052381D01*
X127785714Y-83004762D01*
X127738095Y-82957143D01*
D18*
X143722786Y-72104761D02*
X144267071Y-72104761D01*
X143124071Y-72528095D02*
X143722786Y-72104761D01*
X143124071Y-71681428D01*
X144267071Y-70592857D02*
X144267071Y-71318571D01*
X144267071Y-70955714D02*
X143124071Y-70955714D01*
X143287357Y-71076666D01*
X143396214Y-71197619D01*
X143450643Y-71318571D01*
X137924048Y-78163929D02*
X137803095Y-78109500D01*
X137742619Y-78055071D01*
X137682143Y-77946214D01*
X137682143Y-77891786D01*
X137742619Y-77782929D01*
X137803095Y-77728500D01*
X137924048Y-77674071D01*
X138165952Y-77674071D01*
X138286905Y-77728500D01*
X138347381Y-77782929D01*
X138407857Y-77891786D01*
X138407857Y-77946214D01*
X138347381Y-78055071D01*
X138286905Y-78109500D01*
X138165952Y-78163929D01*
X137924048Y-78163929D01*
X137803095Y-78218357D01*
X137742619Y-78272786D01*
X137682143Y-78381643D01*
X137682143Y-78599357D01*
X137742619Y-78708214D01*
X137803095Y-78762643D01*
X137924048Y-78817071D01*
X138165952Y-78817071D01*
X138286905Y-78762643D01*
X138347381Y-78708214D01*
X138407857Y-78599357D01*
X138407857Y-78381643D01*
X138347381Y-78272786D01*
X138286905Y-78218357D01*
X138165952Y-78163929D01*
X138952143Y-78817071D02*
X138952143Y-77674071D01*
X139375476Y-78490500D01*
X139798810Y-77674071D01*
X139798810Y-78817071D01*
X140403572Y-78817071D02*
X140403572Y-77674071D01*
X140403572Y-78218357D02*
X141129286Y-78218357D01*
X141129286Y-78817071D02*
X141129286Y-77674071D01*
X141613096Y-78055071D02*
X142278334Y-78055071D01*
X141613096Y-78817071D01*
X142278334Y-78817071D01*
D14*
X145107143Y-62642857D02*
X145154762Y-62690476D01*
X145202381Y-62833333D01*
X145202381Y-62928571D01*
X145154762Y-63071429D01*
X145059524Y-63166667D01*
X144964286Y-63214286D01*
X144773810Y-63261905D01*
X144630952Y-63261905D01*
X144440476Y-63214286D01*
X144345238Y-63166667D01*
X144250000Y-63071429D01*
X144202381Y-62928571D01*
X144202381Y-62833333D01*
X144250000Y-62690476D01*
X144297619Y-62642857D01*
X145202381Y-61690476D02*
X145202381Y-62261905D01*
X145202381Y-61976191D02*
X144202381Y-61976191D01*
X144345238Y-62071429D01*
X144440476Y-62166667D01*
X144488095Y-62261905D01*
X144297619Y-61309524D02*
X144250000Y-61261905D01*
X144202381Y-61166667D01*
X144202381Y-60928571D01*
X144250000Y-60833333D01*
X144297619Y-60785714D01*
X144392857Y-60738095D01*
X144488095Y-60738095D01*
X144630952Y-60785714D01*
X145202381Y-61357143D01*
X145202381Y-60738095D01*
X158452381Y-67733333D02*
X159166667Y-67733333D01*
X159309524Y-67780953D01*
X159404762Y-67876191D01*
X159452381Y-68019048D01*
X159452381Y-68114286D01*
X158452381Y-66780952D02*
X158452381Y-67257143D01*
X158928571Y-67304762D01*
X158880952Y-67257143D01*
X158833333Y-67161905D01*
X158833333Y-66923809D01*
X158880952Y-66828571D01*
X158928571Y-66780952D01*
X159023810Y-66733333D01*
X159261905Y-66733333D01*
X159357143Y-66780952D01*
X159404762Y-66828571D01*
X159452381Y-66923809D01*
X159452381Y-67161905D01*
X159404762Y-67257143D01*
X159357143Y-67304762D01*
X160242857Y-78804762D02*
X160385714Y-78852381D01*
X160623810Y-78852381D01*
X160719048Y-78804762D01*
X160766667Y-78757143D01*
X160814286Y-78661905D01*
X160814286Y-78566667D01*
X160766667Y-78471429D01*
X160719048Y-78423810D01*
X160623810Y-78376190D01*
X160433333Y-78328571D01*
X160338095Y-78280952D01*
X160290476Y-78233333D01*
X160242857Y-78138095D01*
X160242857Y-78042857D01*
X160290476Y-77947619D01*
X160338095Y-77900000D01*
X160433333Y-77852381D01*
X160671429Y-77852381D01*
X160814286Y-77900000D01*
X161147619Y-77852381D02*
X161385714Y-78852381D01*
X161576191Y-78138095D01*
X161766667Y-78852381D01*
X162004762Y-77852381D01*
X162385714Y-78852381D02*
X162385714Y-77852381D01*
X162623809Y-77852381D01*
X162766667Y-77900000D01*
X162861905Y-77995238D01*
X162909524Y-78090476D01*
X162957143Y-78280952D01*
X162957143Y-78423810D01*
X162909524Y-78614286D01*
X162861905Y-78709524D01*
X162766667Y-78804762D01*
X162623809Y-78852381D01*
X162385714Y-78852381D01*
X121852381Y-60933333D02*
X122566667Y-60933333D01*
X122709524Y-60980953D01*
X122804762Y-61076191D01*
X122852381Y-61219048D01*
X122852381Y-61314286D01*
X121852381Y-60028571D02*
X121852381Y-60219048D01*
X121900000Y-60314286D01*
X121947619Y-60361905D01*
X122090476Y-60457143D01*
X122280952Y-60504762D01*
X122661905Y-60504762D01*
X122757143Y-60457143D01*
X122804762Y-60409524D01*
X122852381Y-60314286D01*
X122852381Y-60123809D01*
X122804762Y-60028571D01*
X122757143Y-59980952D01*
X122661905Y-59933333D01*
X122423810Y-59933333D01*
X122328571Y-59980952D01*
X122280952Y-60028571D01*
X122233333Y-60123809D01*
X122233333Y-60314286D01*
X122280952Y-60409524D01*
X122328571Y-60457143D01*
X122423810Y-60504762D01*
X132832381Y-57083333D02*
X133546667Y-57083333D01*
X133689524Y-57130953D01*
X133784762Y-57226191D01*
X133832381Y-57369048D01*
X133832381Y-57464286D01*
X132832381Y-56702381D02*
X132832381Y-56083333D01*
X133213333Y-56416667D01*
X133213333Y-56273809D01*
X133260952Y-56178571D01*
X133308571Y-56130952D01*
X133403810Y-56083333D01*
X133641905Y-56083333D01*
X133737143Y-56130952D01*
X133784762Y-56178571D01*
X133832381Y-56273809D01*
X133832381Y-56559524D01*
X133784762Y-56654762D01*
X133737143Y-56702381D01*
%LPC*%
D19*
X128750000Y-85800000D03*
X130950000Y-85800000D03*
D20*
X131250000Y-87950000D03*
X128550000Y-87950000D03*
D21*
X145700000Y-85400000D03*
X139200000Y-85400000D03*
D22*
X133200000Y-81250000D03*
X133200000Y-78750000D03*
D23*
X146000000Y-69000000D03*
X146000000Y-69500000D03*
X146000000Y-70000000D03*
X146000000Y-70500000D03*
X146000000Y-71000000D03*
X146000000Y-71500000D03*
X146000000Y-72000000D03*
X146000000Y-72500000D03*
X146000000Y-73000000D03*
X146000000Y-73500000D03*
X146000000Y-74000000D03*
X146000000Y-74500000D03*
D24*
X147600000Y-76100000D03*
X148100000Y-76100000D03*
X148600000Y-76100000D03*
X149100000Y-76100000D03*
X149600000Y-76100000D03*
X150100000Y-76100000D03*
X150600000Y-76100000D03*
X151100000Y-76100000D03*
X151600000Y-76100000D03*
X152100000Y-76100000D03*
X152600000Y-76100000D03*
X153100000Y-76100000D03*
D23*
X154700000Y-74500000D03*
X154700000Y-74000000D03*
X154700000Y-73500000D03*
X154700000Y-73000000D03*
X154700000Y-72500000D03*
X154700000Y-72000000D03*
X154700000Y-71500000D03*
X154700000Y-71000000D03*
X154700000Y-70500000D03*
X154700000Y-70000000D03*
X154700000Y-69500000D03*
X154700000Y-69000000D03*
D24*
X153100000Y-67400000D03*
X152600000Y-67400000D03*
X152100000Y-67400000D03*
X151600000Y-67400000D03*
X151100000Y-67400000D03*
X150600000Y-67400000D03*
X150100000Y-67400000D03*
X149600000Y-67400000D03*
X149100000Y-67400000D03*
X148600000Y-67400000D03*
X148100000Y-67400000D03*
X147600000Y-67400000D03*
D25*
X136350000Y-87950000D03*
X133850000Y-87950000D03*
D22*
X120950000Y-78150000D03*
X120950000Y-80650000D03*
D26*
X127500000Y-70250000D03*
X127500000Y-66950000D03*
D27*
X120980000Y-73000000D03*
X122250000Y-73000000D03*
X123520000Y-73000000D03*
D28*
X125150000Y-70500000D03*
X125150000Y-69230000D03*
X125150000Y-67960000D03*
X125150000Y-66690000D03*
X119750000Y-66690000D03*
X119750000Y-67960000D03*
X119750000Y-69230000D03*
X119750000Y-70500000D03*
D29*
X143000000Y-51000000D03*
X143000000Y-53700000D03*
X136750000Y-63450000D03*
X136750000Y-60750000D03*
D20*
X133750000Y-85800000D03*
X136450000Y-85800000D03*
X127450000Y-62000000D03*
X124750000Y-62000000D03*
X127450000Y-60000000D03*
X124750000Y-60000000D03*
X127450000Y-58000000D03*
X124750000Y-58000000D03*
X126000000Y-77250000D03*
X128700000Y-77250000D03*
X126000000Y-75100000D03*
X128700000Y-75100000D03*
D29*
X129750000Y-67200000D03*
X129750000Y-69900000D03*
D30*
X138500000Y-51500000D03*
X139770000Y-52770000D03*
D31*
X137230000Y-52770000D03*
D32*
X148030000Y-85400000D03*
X149300000Y-85400000D03*
X150570000Y-85400000D03*
X151840000Y-85400000D03*
X151840000Y-80000000D03*
X150570000Y-80000000D03*
X149300000Y-80000000D03*
X148030000Y-80000000D03*
D33*
X138800000Y-61100000D03*
X138800000Y-62050000D03*
X138800000Y-63000000D03*
X141000000Y-63000000D03*
X141000000Y-61100000D03*
D34*
X129702565Y-81032957D03*
X129702565Y-80532957D03*
X129702565Y-80032957D03*
X129702565Y-79532957D03*
X129702565Y-79032957D03*
X125302565Y-79032957D03*
X125302565Y-79532957D03*
X125302565Y-80032957D03*
X125302565Y-80532957D03*
X125302565Y-81032957D03*
D30*
X147000000Y-64750000D03*
X148900000Y-64750000D03*
D35*
X118240000Y-53540000D03*
D36*
X119500000Y-51050000D03*
X124000000Y-51050000D03*
D35*
X125250000Y-53540000D03*
X155490000Y-53490000D03*
D36*
X156750000Y-51000000D03*
X161250000Y-51000000D03*
D35*
X162500000Y-53490000D03*
X125260000Y-85100000D03*
D36*
X124000000Y-87590000D03*
X119500000Y-87590000D03*
D35*
X118250000Y-85100000D03*
X162500000Y-85100000D03*
D36*
X161240000Y-87590000D03*
X156740000Y-87590000D03*
D35*
X155490000Y-85100000D03*
D37*
X139750000Y-68960000D03*
X139750000Y-74040000D03*
D22*
X143000000Y-60750000D03*
X143000000Y-63250000D03*
D38*
X161500000Y-75800000D03*
D39*
X161500000Y-73260000D03*
X161500000Y-70720000D03*
X161500000Y-68180000D03*
D40*
X150500000Y-51700000D03*
X130000000Y-51700000D03*
D41*
X120350000Y-59000000D03*
X120350000Y-59650000D03*
X120350000Y-60300000D03*
X120350000Y-60950000D03*
X120350000Y-61600000D03*
D42*
X119990000Y-57837500D03*
X119990000Y-62762500D03*
D43*
X117690000Y-57390000D03*
X117690000Y-63210000D03*
D44*
X117690000Y-59460000D03*
X117690000Y-61140000D03*
D38*
X135710000Y-56750000D03*
D39*
X138250000Y-56750000D03*
X140790000Y-56750000D03*
X143330000Y-56750000D03*
D38*
X162350000Y-62100000D03*
D39*
X162350000Y-59560000D03*
X162350000Y-57020000D03*
D38*
X118150000Y-80950000D03*
D39*
X118150000Y-78410000D03*
M02*
