G04 #@! TF.FileFunction,Copper,L2,Bot,Signal*
%FSLAX46Y46*%
G04 Gerber Fmt 4.6, Leading zero omitted, Abs format (unit mm)*
G04 Created by KiCad (PCBNEW 4.0.6) date Tue Jul  4 22:01:03 2017*
%MOMM*%
%LPD*%
G01*
G04 APERTURE LIST*
%ADD10C,0.100000*%
%ADD11C,2.000000*%
%ADD12R,1.250000X1.500000*%
%ADD13R,1.500000X1.250000*%
%ADD14R,1.300000X1.500000*%
%ADD15C,1.000000*%
%ADD16R,1.000000X1.000000*%
%ADD17C,2.100000*%
%ADD18C,1.750000*%
%ADD19C,1.998980*%
%ADD20R,1.700000X1.700000*%
%ADD21O,1.700000X1.700000*%
%ADD22C,0.600000*%
%ADD23C,0.250000*%
G04 APERTURE END LIST*
D10*
D11*
X145700000Y-85400000D03*
X139200000Y-85400000D03*
D12*
X146000000Y-70600000D03*
X146000000Y-73100000D03*
D13*
X149000000Y-76100000D03*
X151500000Y-76100000D03*
X139700000Y-66600000D03*
X137200000Y-66600000D03*
X139700000Y-76400000D03*
X137200000Y-76400000D03*
D12*
X154700000Y-72700000D03*
X154700000Y-70200000D03*
D13*
X151600000Y-67400000D03*
X149100000Y-67400000D03*
X144900000Y-65400000D03*
X142400000Y-65400000D03*
X144900000Y-67300000D03*
X142400000Y-67300000D03*
D14*
X146750000Y-81643058D03*
X146750000Y-78943058D03*
X149000000Y-78993058D03*
X149000000Y-81693058D03*
X150700000Y-69900000D03*
X150700000Y-72600000D03*
X143500000Y-70050000D03*
X143500000Y-72750000D03*
X151000000Y-79000000D03*
X151000000Y-81700000D03*
X127500000Y-81500000D03*
X127500000Y-78800000D03*
D15*
X138500000Y-51500000D03*
X139770000Y-52770000D03*
D16*
X137230000Y-52770000D03*
D15*
X147000000Y-64750000D03*
X148900000Y-64750000D03*
D17*
X118240000Y-53540000D03*
D18*
X119500000Y-51050000D03*
X124000000Y-51050000D03*
D17*
X125250000Y-53540000D03*
X155490000Y-53490000D03*
D18*
X156750000Y-51000000D03*
X161250000Y-51000000D03*
D17*
X162500000Y-53490000D03*
X125260000Y-85100000D03*
D18*
X124000000Y-87590000D03*
X119500000Y-87590000D03*
D17*
X118250000Y-85100000D03*
X162500000Y-85100000D03*
D18*
X161240000Y-87590000D03*
X156740000Y-87590000D03*
D17*
X155490000Y-85100000D03*
D19*
X139750000Y-68960000D03*
X139750000Y-74040000D03*
D20*
X161500000Y-75800000D03*
D21*
X161500000Y-73260000D03*
X161500000Y-70720000D03*
X161500000Y-68180000D03*
D20*
X135710000Y-56750000D03*
D21*
X138250000Y-56750000D03*
X140790000Y-56750000D03*
X143330000Y-56750000D03*
D20*
X162350000Y-62100000D03*
D21*
X162350000Y-59560000D03*
X162350000Y-57020000D03*
D20*
X118150000Y-80950000D03*
D21*
X118150000Y-78410000D03*
D22*
X122600000Y-57850000D03*
X149300000Y-83600000D03*
X125400000Y-82200000D03*
X129800000Y-71500000D03*
X128700000Y-73500000D03*
X139900000Y-65100000D03*
X144700000Y-72500000D03*
X152406302Y-69234063D03*
X152474990Y-72700000D03*
X147400000Y-73000000D03*
X148049989Y-69444935D03*
X149500000Y-77500000D03*
X153100000Y-71500000D03*
X153300000Y-68800000D03*
X144400000Y-61000000D03*
X154400000Y-78700000D03*
X144700000Y-70000000D03*
X141900000Y-70000000D03*
X143600000Y-71400000D03*
X141900000Y-72800000D03*
X147575021Y-70500000D03*
X139200000Y-82550000D03*
X123600000Y-66700000D03*
X122600000Y-59000000D03*
X131300000Y-74600000D03*
X131300000Y-67200000D03*
X134800000Y-81700000D03*
X149300000Y-69200000D03*
X148504196Y-77479702D03*
X156100000Y-73200000D03*
X145000000Y-51025010D03*
X150974990Y-77500000D03*
X156056261Y-70625010D03*
X129000000Y-60000000D03*
X157031716Y-70655020D03*
X129000000Y-58000000D03*
X131362411Y-80358905D03*
X149794629Y-74701213D03*
X131275859Y-79470451D03*
X150574990Y-74524989D03*
X127500000Y-80100000D03*
D23*
X118000000Y-57560000D02*
X118250000Y-57560000D01*
X137230000Y-52770000D02*
X138451002Y-52770000D01*
X140264001Y-51944999D02*
X151569002Y-63250000D01*
X138451002Y-52770000D02*
X139276003Y-51944999D01*
X139276003Y-51944999D02*
X140264001Y-51944999D01*
X151569002Y-63250000D02*
X160100000Y-63250000D01*
X160100000Y-63250000D02*
X161250000Y-62100000D01*
X161250000Y-62100000D02*
X162350000Y-62100000D01*
X128700000Y-73500000D02*
X125400000Y-73500000D01*
X119250000Y-80950000D02*
X118150000Y-80950000D01*
X125400000Y-73500000D02*
X123799999Y-75100001D01*
X123799999Y-75100001D02*
X120349999Y-75100001D01*
X120349999Y-75100001D02*
X119800000Y-75650000D01*
X119800000Y-75650000D02*
X119800000Y-80400000D01*
X119800000Y-80400000D02*
X119250000Y-80950000D01*
X123850000Y-56600000D02*
X122600000Y-57850000D01*
X132800000Y-56600000D02*
X123850000Y-56600000D01*
X137400001Y-57599999D02*
X138250000Y-56750000D01*
X132800000Y-56600000D02*
X134125001Y-57925001D01*
X134125001Y-57925001D02*
X137074999Y-57925001D01*
X137074999Y-57925001D02*
X137400001Y-57599999D01*
X127500000Y-81500000D02*
X128400000Y-81500000D01*
X137200000Y-66600000D02*
X137200000Y-65725000D01*
X137200000Y-65725000D02*
X137825000Y-65100000D01*
X137825000Y-65100000D02*
X139475736Y-65100000D01*
X139475736Y-65100000D02*
X139900000Y-65100000D01*
X149200000Y-83700000D02*
X149300000Y-83600000D01*
X149000000Y-81693058D02*
X149000000Y-83300000D01*
X149000000Y-83300000D02*
X149300000Y-83600000D01*
X154700000Y-72700000D02*
X154700000Y-72825000D01*
X154700000Y-72825000D02*
X157675000Y-75800000D01*
X157675000Y-75800000D02*
X160400000Y-75800000D01*
X160400000Y-75800000D02*
X161500000Y-75800000D01*
X150700000Y-72600000D02*
X152374990Y-72600000D01*
X152374990Y-72600000D02*
X152474990Y-72700000D01*
X127500000Y-81500000D02*
X126100000Y-81500000D01*
X126100000Y-81500000D02*
X125400000Y-82200000D01*
X149200000Y-81893058D02*
X149000000Y-81693058D01*
X149000000Y-81793058D02*
X149000000Y-81693058D01*
X149000000Y-76100000D02*
X147608056Y-76100000D01*
X147608056Y-76100000D02*
X145774999Y-77933057D01*
X145774999Y-77933057D02*
X145774999Y-79953059D01*
X145774999Y-79953059D02*
X146389997Y-80568057D01*
X146389997Y-80568057D02*
X147974999Y-80568057D01*
X147974999Y-80568057D02*
X149000000Y-81593058D01*
X149000000Y-81593058D02*
X149000000Y-81693058D01*
X129800000Y-72400000D02*
X129800000Y-71500000D01*
X128700000Y-73500000D02*
X129800000Y-72400000D01*
X152474990Y-72700000D02*
X154700000Y-72700000D01*
X140700000Y-65100000D02*
X141000000Y-65400000D01*
X139900000Y-65100000D02*
X140700000Y-65100000D01*
X141000000Y-65400000D02*
X142400000Y-65400000D01*
X144700000Y-71900000D02*
X146000000Y-70600000D01*
X144700000Y-72500000D02*
X144700000Y-71900000D01*
X151600000Y-68427761D02*
X152406302Y-69234063D01*
X151600000Y-67400000D02*
X151600000Y-68427761D01*
X146000000Y-70600000D02*
X146000000Y-69400000D01*
X145200000Y-68600000D02*
X142825000Y-68600000D01*
X146000000Y-69400000D02*
X145200000Y-68600000D01*
X142825000Y-68600000D02*
X142400000Y-68175000D01*
X142400000Y-68175000D02*
X142400000Y-67300000D01*
X127400000Y-81600000D02*
X127500000Y-81500000D01*
X151000000Y-81700000D02*
X149006942Y-81700000D01*
X149006942Y-81700000D02*
X149000000Y-81693058D01*
X150993058Y-81693058D02*
X151000000Y-81700000D01*
X142400000Y-67300000D02*
X142400000Y-65400000D01*
X148875000Y-76100000D02*
X149000000Y-76100000D01*
X137200000Y-66600000D02*
X137200000Y-76400000D01*
X161250000Y-51000000D02*
X160375001Y-51874999D01*
X160375001Y-51874999D02*
X160375001Y-55045001D01*
X160375001Y-55045001D02*
X161500001Y-56170001D01*
X161500001Y-56170001D02*
X162350000Y-57020000D01*
X144813599Y-49749991D02*
X144763591Y-49799999D01*
X144763591Y-49799999D02*
X125200001Y-49799999D01*
X159999991Y-49749991D02*
X144813599Y-49749991D01*
X125200001Y-49799999D02*
X123990000Y-51010000D01*
X161250000Y-51000000D02*
X159999991Y-49749991D01*
X153100000Y-71500000D02*
X150105054Y-71500000D01*
X150105054Y-71500000D02*
X148049989Y-69444935D01*
X153100000Y-71500000D02*
X153100000Y-70900000D01*
X153100000Y-70900000D02*
X153800000Y-70200000D01*
X148349988Y-72050012D02*
X148349988Y-69744934D01*
X148349988Y-69144936D02*
X148049989Y-69444935D01*
X149100000Y-68394924D02*
X148349988Y-69144936D01*
X149100000Y-67400000D02*
X149100000Y-68394924D01*
X148349988Y-69744934D02*
X148049989Y-69444935D01*
X147400000Y-73000000D02*
X148349988Y-72050012D01*
X149500000Y-77500000D02*
X150900000Y-76100000D01*
X150900000Y-76100000D02*
X151500000Y-76100000D01*
X147400000Y-73000000D02*
X146100000Y-73000000D01*
X146100000Y-73000000D02*
X146000000Y-73100000D01*
X153300000Y-68800000D02*
X153300000Y-69224264D01*
X153300000Y-69700000D02*
X153800000Y-70200000D01*
X153800000Y-70200000D02*
X154700000Y-70200000D01*
X153300000Y-68800000D02*
X153300000Y-69700000D01*
X151500000Y-76100000D02*
X154300000Y-76100000D01*
X154300000Y-76100000D02*
X154400000Y-76200000D01*
X149725001Y-64353999D02*
X149725001Y-67562086D01*
X146371002Y-61000000D02*
X149725001Y-64353999D01*
X144400000Y-61000000D02*
X146371002Y-61000000D01*
X152000000Y-75600000D02*
X151500000Y-76100000D01*
X154400000Y-78700000D02*
X154400000Y-76200000D01*
X139700000Y-66600000D02*
X139700000Y-68910000D01*
X139700000Y-68910000D02*
X139750000Y-68960000D01*
X143500000Y-70050000D02*
X144650000Y-70050000D01*
X144650000Y-70050000D02*
X144700000Y-70000000D01*
X141900000Y-70000000D02*
X143450000Y-70000000D01*
X143450000Y-70000000D02*
X143500000Y-70050000D01*
X139700000Y-76400000D02*
X139700000Y-74090000D01*
X139700000Y-74090000D02*
X139750000Y-74040000D01*
X143500000Y-71500000D02*
X143600000Y-71400000D01*
X143500000Y-72750000D02*
X143500000Y-71500000D01*
X141900000Y-72800000D02*
X143450000Y-72800000D01*
X143450000Y-72800000D02*
X143500000Y-72750000D01*
X144900000Y-65400000D02*
X146350000Y-65400000D01*
X146350000Y-65400000D02*
X147000000Y-64750000D01*
X147275022Y-70200001D02*
X147575021Y-70500000D01*
X147275022Y-69550022D02*
X147275022Y-70200001D01*
X145025000Y-67300000D02*
X147275022Y-69550022D01*
X144900000Y-67300000D02*
X145025000Y-67300000D01*
X148900000Y-64750000D02*
X146350000Y-67300000D01*
X146350000Y-67300000D02*
X144900000Y-67300000D01*
X139200000Y-82550000D02*
X139200000Y-85400000D01*
X122800000Y-66700000D02*
X123600000Y-66700000D01*
X122600000Y-66500000D02*
X122800000Y-66700000D01*
X122600000Y-59000000D02*
X122600000Y-66500000D01*
X131300000Y-74600000D02*
X131300000Y-67200000D01*
X134800000Y-81700000D02*
X146693058Y-81700000D01*
X146693058Y-81700000D02*
X146750000Y-81643058D01*
X150700000Y-69900000D02*
X150000000Y-69900000D01*
X150000000Y-69900000D02*
X149300000Y-69200000D01*
X146750000Y-78943058D02*
X148950000Y-78943058D01*
X148950000Y-78943058D02*
X149000000Y-78993058D01*
X149000000Y-77975506D02*
X148504196Y-77479702D01*
X149000000Y-78993058D02*
X149000000Y-77975506D01*
X156100000Y-73200000D02*
X156399999Y-72900001D01*
X156399999Y-72900001D02*
X157299999Y-72900001D01*
X157299999Y-72900001D02*
X158250000Y-71950000D01*
X158250000Y-69690998D02*
X158250000Y-71950000D01*
X145000000Y-55900000D02*
X147484999Y-58384999D01*
X147484999Y-58384999D02*
X162914001Y-58384999D01*
X163525001Y-64415997D02*
X158250000Y-69690998D01*
X162914001Y-58384999D02*
X163525001Y-58995999D01*
X163525001Y-58995999D02*
X163525001Y-64415997D01*
X145000000Y-51025010D02*
X145000000Y-55900000D01*
X151000000Y-77525010D02*
X150974990Y-77500000D01*
X151000000Y-79000000D02*
X151000000Y-77525010D01*
X156056261Y-69596259D02*
X156056261Y-70200746D01*
X136122821Y-60000000D02*
X146460002Y-60000000D01*
X129000000Y-60000000D02*
X129350020Y-60350020D01*
X129350020Y-60350020D02*
X135772801Y-60350020D01*
X135772801Y-60350020D02*
X136122821Y-60000000D01*
X146460002Y-60000000D02*
X156056261Y-69596259D01*
X156056261Y-70200746D02*
X156056261Y-70625010D01*
X157031716Y-69935303D02*
X157031716Y-70230756D01*
X145096413Y-58000000D02*
X157031716Y-69935303D01*
X137636410Y-58000000D02*
X145096413Y-58000000D01*
X157031716Y-70230756D02*
X157031716Y-70655020D01*
X137261399Y-58375012D02*
X137636410Y-58000000D01*
X129375012Y-58375012D02*
X137261399Y-58375012D01*
X129000000Y-58000000D02*
X129375012Y-58375012D01*
X131362411Y-80358905D02*
X142712740Y-80358905D01*
X142712740Y-80358905D02*
X148370432Y-74701213D01*
X149794629Y-74701213D02*
X148370432Y-74701213D01*
X131275859Y-79470451D02*
X131575858Y-79770450D01*
X131575858Y-79770450D02*
X142439552Y-79770450D01*
X142439552Y-79770450D02*
X148135004Y-74074998D01*
X150574990Y-74524989D02*
X150124999Y-74074998D01*
X150124999Y-74074998D02*
X148135004Y-74074998D01*
X127500000Y-80100000D02*
X127500000Y-78800000D01*
M02*
