%FSLAX45Y45*%
G04 Gerber Fmt 4.5, Leading zero omitted, Abs format (unit mm)*
G04 Created by KiCad (PCBNEW 4.0.6) date Tue Jul  4 22:04:29 2017*
%MOMM*%
%LPD*%
G01*
G04 APERTURE LIST*
%ADD10C,0.127000*%
%ADD11C,0.150000*%
%ADD12C,0.200000*%
%ADD13C,0.300000*%
G04 APERTURE END LIST*
D10*
D11*
X11625000Y-8950000D02*
X11625000Y-4900000D01*
X16450000Y-8950000D02*
X11625000Y-8950000D01*
X16450000Y-4900000D02*
X16450000Y-8950000D01*
X11625000Y-4900000D02*
X16450000Y-4900000D01*
D12*
X12890000Y-5060000D02*
X13110000Y-5280000D01*
X13110000Y-5060000D02*
X12890000Y-5280000D01*
X14940000Y-5060000D02*
X15160000Y-5280000D01*
X15160000Y-5060000D02*
X14940000Y-5280000D01*
D13*
X11888928Y-9423214D02*
X11888928Y-9123214D01*
X11960357Y-9123214D01*
X12003214Y-9137500D01*
X12031786Y-9166072D01*
X12046071Y-9194643D01*
X12060357Y-9251786D01*
X12060357Y-9294643D01*
X12046071Y-9351786D01*
X12031786Y-9380357D01*
X12003214Y-9408929D01*
X11960357Y-9423214D01*
X11888928Y-9423214D01*
X12188928Y-9423214D02*
X12188928Y-9223214D01*
X12188928Y-9280357D02*
X12203214Y-9251786D01*
X12217500Y-9237500D01*
X12246071Y-9223214D01*
X12274643Y-9223214D01*
X12374643Y-9423214D02*
X12374643Y-9223214D01*
X12374643Y-9123214D02*
X12360357Y-9137500D01*
X12374643Y-9151786D01*
X12388928Y-9137500D01*
X12374643Y-9123214D01*
X12374643Y-9151786D01*
X12560357Y-9423214D02*
X12531786Y-9408929D01*
X12517500Y-9380357D01*
X12517500Y-9123214D01*
X12717500Y-9423214D02*
X12688928Y-9408929D01*
X12674643Y-9380357D01*
X12674643Y-9123214D01*
X13060357Y-9423214D02*
X13060357Y-9123214D01*
X13160357Y-9337500D01*
X13260357Y-9123214D01*
X13260357Y-9423214D01*
X13531786Y-9423214D02*
X13531786Y-9266072D01*
X13517500Y-9237500D01*
X13488928Y-9223214D01*
X13431786Y-9223214D01*
X13403214Y-9237500D01*
X13531786Y-9408929D02*
X13503214Y-9423214D01*
X13431786Y-9423214D01*
X13403214Y-9408929D01*
X13388928Y-9380357D01*
X13388928Y-9351786D01*
X13403214Y-9323214D01*
X13431786Y-9308929D01*
X13503214Y-9308929D01*
X13531786Y-9294643D01*
X13674643Y-9223214D02*
X13674643Y-9523214D01*
X13674643Y-9237500D02*
X13703214Y-9223214D01*
X13760357Y-9223214D01*
X13788928Y-9237500D01*
X13803214Y-9251786D01*
X13817500Y-9280357D01*
X13817500Y-9366072D01*
X13803214Y-9394643D01*
X13788928Y-9408929D01*
X13760357Y-9423214D01*
X13703214Y-9423214D01*
X13674643Y-9408929D01*
X13946071Y-9394643D02*
X13960357Y-9408929D01*
X13946071Y-9423214D01*
X13931786Y-9408929D01*
X13946071Y-9394643D01*
X13946071Y-9423214D01*
X13946071Y-9237500D02*
X13960357Y-9251786D01*
X13946071Y-9266072D01*
X13931786Y-9251786D01*
X13946071Y-9237500D01*
X13946071Y-9266072D01*
X11397500Y-9807500D02*
X11617500Y-10027500D01*
X11617500Y-9807500D02*
X11397500Y-10027500D01*
X11874643Y-9781786D02*
X11888928Y-9767500D01*
X11917500Y-9753214D01*
X11988928Y-9753214D01*
X12017500Y-9767500D01*
X12031786Y-9781786D01*
X12046071Y-9810357D01*
X12046071Y-9838929D01*
X12031786Y-9881786D01*
X11860357Y-10053214D01*
X12046071Y-10053214D01*
X12174643Y-10024643D02*
X12188928Y-10038929D01*
X12174643Y-10053214D01*
X12160357Y-10038929D01*
X12174643Y-10024643D01*
X12174643Y-10053214D01*
X12303214Y-9781786D02*
X12317500Y-9767500D01*
X12346071Y-9753214D01*
X12417500Y-9753214D01*
X12446071Y-9767500D01*
X12460357Y-9781786D01*
X12474643Y-9810357D01*
X12474643Y-9838929D01*
X12460357Y-9881786D01*
X12288928Y-10053214D01*
X12474643Y-10053214D01*
X12660357Y-9753214D02*
X12688928Y-9753214D01*
X12717500Y-9767500D01*
X12731786Y-9781786D01*
X12746071Y-9810357D01*
X12760357Y-9867500D01*
X12760357Y-9938929D01*
X12746071Y-9996072D01*
X12731786Y-10024643D01*
X12717500Y-10038929D01*
X12688928Y-10053214D01*
X12660357Y-10053214D01*
X12631786Y-10038929D01*
X12617500Y-10024643D01*
X12603214Y-9996072D01*
X12588928Y-9938929D01*
X12588928Y-9867500D01*
X12603214Y-9810357D01*
X12617500Y-9781786D01*
X12631786Y-9767500D01*
X12660357Y-9753214D01*
X12888928Y-10053214D02*
X12888928Y-9853214D01*
X12888928Y-9881786D02*
X12903214Y-9867500D01*
X12931786Y-9853214D01*
X12974643Y-9853214D01*
X13003214Y-9867500D01*
X13017500Y-9896072D01*
X13017500Y-10053214D01*
X13017500Y-9896072D02*
X13031786Y-9867500D01*
X13060357Y-9853214D01*
X13103214Y-9853214D01*
X13131786Y-9867500D01*
X13146071Y-9896072D01*
X13146071Y-10053214D01*
X13288928Y-10053214D02*
X13288928Y-9853214D01*
X13288928Y-9881786D02*
X13303214Y-9867500D01*
X13331786Y-9853214D01*
X13374643Y-9853214D01*
X13403214Y-9867500D01*
X13417500Y-9896072D01*
X13417500Y-10053214D01*
X13417500Y-9896072D02*
X13431786Y-9867500D01*
X13460357Y-9853214D01*
X13503214Y-9853214D01*
X13531786Y-9867500D01*
X13546071Y-9896072D01*
X13546071Y-10053214D01*
X14131786Y-9738929D02*
X13874643Y-10124643D01*
X14517500Y-9753214D02*
X14546071Y-9753214D01*
X14574643Y-9767500D01*
X14588928Y-9781786D01*
X14603214Y-9810357D01*
X14617500Y-9867500D01*
X14617500Y-9938929D01*
X14603214Y-9996072D01*
X14588928Y-10024643D01*
X14574643Y-10038929D01*
X14546071Y-10053214D01*
X14517500Y-10053214D01*
X14488928Y-10038929D01*
X14474643Y-10024643D01*
X14460357Y-9996072D01*
X14446071Y-9938929D01*
X14446071Y-9867500D01*
X14460357Y-9810357D01*
X14474643Y-9781786D01*
X14488928Y-9767500D01*
X14517500Y-9753214D01*
X14746071Y-10024643D02*
X14760357Y-10038929D01*
X14746071Y-10053214D01*
X14731786Y-10038929D01*
X14746071Y-10024643D01*
X14746071Y-10053214D01*
X14946071Y-9753214D02*
X14974643Y-9753214D01*
X15003214Y-9767500D01*
X15017500Y-9781786D01*
X15031785Y-9810357D01*
X15046071Y-9867500D01*
X15046071Y-9938929D01*
X15031785Y-9996072D01*
X15017500Y-10024643D01*
X15003214Y-10038929D01*
X14974643Y-10053214D01*
X14946071Y-10053214D01*
X14917500Y-10038929D01*
X14903214Y-10024643D01*
X14888928Y-9996072D01*
X14874643Y-9938929D01*
X14874643Y-9867500D01*
X14888928Y-9810357D01*
X14903214Y-9781786D01*
X14917500Y-9767500D01*
X14946071Y-9753214D01*
X15217500Y-9881786D02*
X15188928Y-9867500D01*
X15174643Y-9853214D01*
X15160357Y-9824643D01*
X15160357Y-9810357D01*
X15174643Y-9781786D01*
X15188928Y-9767500D01*
X15217500Y-9753214D01*
X15274643Y-9753214D01*
X15303214Y-9767500D01*
X15317500Y-9781786D01*
X15331785Y-9810357D01*
X15331785Y-9824643D01*
X15317500Y-9853214D01*
X15303214Y-9867500D01*
X15274643Y-9881786D01*
X15217500Y-9881786D01*
X15188928Y-9896072D01*
X15174643Y-9910357D01*
X15160357Y-9938929D01*
X15160357Y-9996072D01*
X15174643Y-10024643D01*
X15188928Y-10038929D01*
X15217500Y-10053214D01*
X15274643Y-10053214D01*
X15303214Y-10038929D01*
X15317500Y-10024643D01*
X15331785Y-9996072D01*
X15331785Y-9938929D01*
X15317500Y-9910357D01*
X15303214Y-9896072D01*
X15274643Y-9881786D01*
X15431785Y-9753214D02*
X15631785Y-9753214D01*
X15503214Y-10053214D01*
X15731786Y-9753214D02*
X15731786Y-9810357D01*
X15846071Y-9753214D02*
X15846071Y-9810357D01*
X16288928Y-10167500D02*
X16274643Y-10153214D01*
X16246071Y-10110357D01*
X16231785Y-10081786D01*
X16217500Y-10038929D01*
X16203214Y-9967500D01*
X16203214Y-9910357D01*
X16217500Y-9838929D01*
X16231785Y-9796072D01*
X16246071Y-9767500D01*
X16274643Y-9724643D01*
X16288928Y-9710357D01*
X16388928Y-9781786D02*
X16403214Y-9767500D01*
X16431785Y-9753214D01*
X16503214Y-9753214D01*
X16531785Y-9767500D01*
X16546071Y-9781786D01*
X16560357Y-9810357D01*
X16560357Y-9838929D01*
X16546071Y-9881786D01*
X16374643Y-10053214D01*
X16560357Y-10053214D01*
X16917500Y-10053214D02*
X16917500Y-9753214D01*
X17046071Y-10053214D02*
X17046071Y-9896072D01*
X17031786Y-9867500D01*
X17003214Y-9853214D01*
X16960357Y-9853214D01*
X16931786Y-9867500D01*
X16917500Y-9881786D01*
X17231786Y-10053214D02*
X17203214Y-10038929D01*
X17188928Y-10024643D01*
X17174643Y-9996072D01*
X17174643Y-9910357D01*
X17188928Y-9881786D01*
X17203214Y-9867500D01*
X17231786Y-9853214D01*
X17274643Y-9853214D01*
X17303214Y-9867500D01*
X17317500Y-9881786D01*
X17331786Y-9910357D01*
X17331786Y-9996072D01*
X17317500Y-10024643D01*
X17303214Y-10038929D01*
X17274643Y-10053214D01*
X17231786Y-10053214D01*
X17503214Y-10053214D02*
X17474643Y-10038929D01*
X17460357Y-10010357D01*
X17460357Y-9753214D01*
X17731786Y-10038929D02*
X17703214Y-10053214D01*
X17646071Y-10053214D01*
X17617500Y-10038929D01*
X17603214Y-10010357D01*
X17603214Y-9896072D01*
X17617500Y-9867500D01*
X17646071Y-9853214D01*
X17703214Y-9853214D01*
X17731786Y-9867500D01*
X17746071Y-9896072D01*
X17746071Y-9924643D01*
X17603214Y-9953214D01*
X17860357Y-10038929D02*
X17888929Y-10053214D01*
X17946071Y-10053214D01*
X17974643Y-10038929D01*
X17988929Y-10010357D01*
X17988929Y-9996072D01*
X17974643Y-9967500D01*
X17946071Y-9953214D01*
X17903214Y-9953214D01*
X17874643Y-9938929D01*
X17860357Y-9910357D01*
X17860357Y-9896072D01*
X17874643Y-9867500D01*
X17903214Y-9853214D01*
X17946071Y-9853214D01*
X17974643Y-9867500D01*
X18088928Y-10167500D02*
X18103214Y-10153214D01*
X18131786Y-10110357D01*
X18146071Y-10081786D01*
X18160357Y-10038929D01*
X18174643Y-9967500D01*
X18174643Y-9910357D01*
X18160357Y-9838929D01*
X18146071Y-9796072D01*
X18131786Y-9767500D01*
X18103214Y-9724643D01*
X18088928Y-9710357D01*
X18631786Y-10167500D02*
X18617500Y-10153214D01*
X18588928Y-10110357D01*
X18574643Y-10081786D01*
X18560357Y-10038929D01*
X18546071Y-9967500D01*
X18546071Y-9910357D01*
X18560357Y-9838929D01*
X18574643Y-9796072D01*
X18588928Y-9767500D01*
X18617500Y-9724643D01*
X18631786Y-9710357D01*
X18746071Y-9853214D02*
X18746071Y-10053214D01*
X18746071Y-9881786D02*
X18760357Y-9867500D01*
X18788928Y-9853214D01*
X18831786Y-9853214D01*
X18860357Y-9867500D01*
X18874643Y-9896072D01*
X18874643Y-10053214D01*
X19060357Y-10053214D02*
X19031786Y-10038929D01*
X19017500Y-10024643D01*
X19003214Y-9996072D01*
X19003214Y-9910357D01*
X19017500Y-9881786D01*
X19031786Y-9867500D01*
X19060357Y-9853214D01*
X19103214Y-9853214D01*
X19131786Y-9867500D01*
X19146071Y-9881786D01*
X19160357Y-9910357D01*
X19160357Y-9996072D01*
X19146071Y-10024643D01*
X19131786Y-10038929D01*
X19103214Y-10053214D01*
X19060357Y-10053214D01*
X19246071Y-9853214D02*
X19360357Y-9853214D01*
X19288929Y-9753214D02*
X19288929Y-10010357D01*
X19303214Y-10038929D01*
X19331786Y-10053214D01*
X19360357Y-10053214D01*
X19688929Y-9853214D02*
X19688929Y-10153214D01*
X19688929Y-9867500D02*
X19717500Y-9853214D01*
X19774643Y-9853214D01*
X19803214Y-9867500D01*
X19817500Y-9881786D01*
X19831786Y-9910357D01*
X19831786Y-9996072D01*
X19817500Y-10024643D01*
X19803214Y-10038929D01*
X19774643Y-10053214D01*
X19717500Y-10053214D01*
X19688929Y-10038929D01*
X20003214Y-10053214D02*
X19974643Y-10038929D01*
X19960357Y-10010357D01*
X19960357Y-9753214D01*
X20246071Y-10053214D02*
X20246071Y-9896072D01*
X20231786Y-9867500D01*
X20203214Y-9853214D01*
X20146071Y-9853214D01*
X20117500Y-9867500D01*
X20246071Y-10038929D02*
X20217500Y-10053214D01*
X20146071Y-10053214D01*
X20117500Y-10038929D01*
X20103214Y-10010357D01*
X20103214Y-9981786D01*
X20117500Y-9953214D01*
X20146071Y-9938929D01*
X20217500Y-9938929D01*
X20246071Y-9924643D01*
X20346071Y-9853214D02*
X20460357Y-9853214D01*
X20388929Y-9753214D02*
X20388929Y-10010357D01*
X20403214Y-10038929D01*
X20431786Y-10053214D01*
X20460357Y-10053214D01*
X20674643Y-10038929D02*
X20646072Y-10053214D01*
X20588929Y-10053214D01*
X20560357Y-10038929D01*
X20546072Y-10010357D01*
X20546072Y-9896072D01*
X20560357Y-9867500D01*
X20588929Y-9853214D01*
X20646072Y-9853214D01*
X20674643Y-9867500D01*
X20688929Y-9896072D01*
X20688929Y-9924643D01*
X20546072Y-9953214D01*
X20946072Y-10053214D02*
X20946072Y-9753214D01*
X20946072Y-10038929D02*
X20917500Y-10053214D01*
X20860357Y-10053214D01*
X20831786Y-10038929D01*
X20817500Y-10024643D01*
X20803214Y-9996072D01*
X20803214Y-9910357D01*
X20817500Y-9881786D01*
X20831786Y-9867500D01*
X20860357Y-9853214D01*
X20917500Y-9853214D01*
X20946072Y-9867500D01*
X21060357Y-10167500D02*
X21074643Y-10153214D01*
X21103214Y-10110357D01*
X21117500Y-10081786D01*
X21131786Y-10038929D01*
X21146072Y-9967500D01*
X21146072Y-9910357D01*
X21131786Y-9838929D01*
X21117500Y-9796072D01*
X21103214Y-9767500D01*
X21074643Y-9724643D01*
X21060357Y-9710357D01*
M02*
